<?xml version="1.0" encoding="iso-8859-1"?>
<!-- Generator: Adobe Illustrator 15.1.0, SVG Export Plug-In . SVG Version: 6.00 Build 0)  -->
<!DOCTYPE svg PUBLIC "-//W3C//DTD SVG 1.1//EN" "http://www.w3.org/Graphics/SVG/1.1/DTD/svg11.dtd">
<svg version="1.1" id="flash0.ai" xmlns="http://www.w3.org/2000/svg" xmlns:xlink="http://www.w3.org/1999/xlink" x="0px" y="0px"
	 width="34.7px" height="40px" viewBox="0 0 34.7 40" style="enable-background:new 0 0 34.7 40;" xml:space="preserve">
<symbol  id="flash0.ai_x5F_2_x2F_Layer_13_copy_x2F__x3C_Path_x3E_" viewBox="0 -2.513 8.03 2.513">
	<g id="Layer_1_5_">
		<path style="fill-rule:evenodd;clip-rule:evenodd;fill:#472F00;" d="M1.15-1.65c0.5,0.433,0.934,0.717,1.3,0.85L5.35,0
			c0.167,0,1-0.267,2.5-0.8c0.2-0.1,0.233-0.317,0.1-0.65C6.75-1.85,5.6-2.133,4.5-2.3C2.6-2.567,1.367-2.583,0.8-2.35
			C0.6-2.283,0.333-2.033,0-1.6L1.15-1.65z"/>
	</g>
</symbol>
<symbol  id="flash0.ai_x5F_2_x2F_Layer_13_copy_x2F__x3C_Path_x3E__x5F_12" viewBox="0 -4.65 17.55 4.65">
	<g id="Layer_1_3_">
		<path style="fill-rule:evenodd;clip-rule:evenodd;fill:#002754;" d="M17.55-2.35c0-0.633-0.85-1.167-2.55-1.6
			c-1.733-0.466-3.8-0.7-6.2-0.7c-2.433,0-4.517,0.233-6.25,0.7C0.85-3.517,0-2.983,0-2.35S0.85-1.167,2.55-0.7
			C4.283-0.233,6.367,0,8.8,0c2.434,0,4.5-0.233,6.2-0.7C16.7-1.167,17.55-1.717,17.55-2.35z"/>
	</g>
</symbol>
<symbol  id="flash0.ai_x5F_2_x2F_Layer_13_copy_x2F__x3C_Path_x3E__x5F_13" viewBox="0 -36.45 8.4 36.45">
	<g id="Layer_1_2_">
		<linearGradient id="SVGID_1_" gradientUnits="userSpaceOnUse" x1="0.0127" y1="-18.2251" x2="8.3877" y2="-18.2251">
			<stop  offset="0" style="stop-color:#FFFFFF"/>
			<stop  offset="1" style="stop-color:#000000"/>
		</linearGradient>
		<path style="fill-rule:evenodd;clip-rule:evenodd;fill:url(#SVGID_1_);" d="M8.3-1.1c-0.033-0.633,0-1.45,0.1-2.45v-32.9
			c-3.233,0.034-5.833,0.567-7.8,1.6c-0.3,0.333-0.483,0.684-0.55,1.05L0-33.35V-3.6c0,0.434,0.05,0.717,0.15,0.85
			c0.2,0.2,0.4,0.433,0.6,0.7C0.983-1.75,1.417-1.067,2.05,0h2.8C7.183-0.367,8.333-0.733,8.3-1.1z"/>
	</g>
</symbol>
<symbol  id="flash0.ai_x5F_2_x2F_Layer_13_copy_x2F__x3C_Path_x3E__x5F_7" viewBox="0 -32.1 2.8 32.1">
	<g id="Layer_1_4_">
		
			<linearGradient id="SVGID_2_" gradientUnits="userSpaceOnUse" x1="11.8115" y1="-16345.2578" x2="35.5365" y2="-16345.2578" gradientTransform="matrix(4.214963e-005 -1 1 -0.001 16346.6553 -5.1719)">
			<stop  offset="0" style="stop-color:#FFFFFF"/>
			<stop  offset="1" style="stop-color:#000000"/>
		</linearGradient>
		<path style="fill-rule:evenodd;clip-rule:evenodd;fill:url(#SVGID_2_);" d="M0-32.1v31.2C0.003-1,0.37-0.966,1.1-0.8
			C1.833-0.633,2.4-0.367,2.8,0L2.75-31C2.117-31.4,1.2-31.767,0-32.1z"/>
	</g>
</symbol>
<g>
	
		<linearGradient id="SVGID_3_" gradientUnits="userSpaceOnUse" x1="0.5" y1="36.0762" x2="20.225" y2="36.0762" gradientTransform="matrix(0.8 0 0 0.8 9.1004 8.0002)">
		<stop  offset="0" style="stop-color:#FFCC69"/>
		<stop  offset="1" style="stop-color:#804300"/>
	</linearGradient>
	<path style="fill-rule:evenodd;clip-rule:evenodd;fill:url(#SVGID_3_);" d="M25.3,36.84c0,0.88-0.773,1.626-2.32,2.239
		C21.434,39.692,19.566,40,17.38,40s-4.04-0.308-5.56-0.921C10.273,38.466,9.5,37.72,9.5,36.84c0-0.854,0.773-1.587,2.32-2.2
		c1.52-0.613,3.374-0.92,5.56-0.92s4.054,0.307,5.6,0.92C24.526,35.253,25.3,35.986,25.3,36.84z"/>
	<path style="fill-rule:evenodd;clip-rule:evenodd;fill:#453100;" d="M15.94,39.399c-2.16-0.16-3.88-0.626-5.16-1.399L9.5,36.84
		l0.16-3c2.48,0.106,4.986,0.267,7.52,0.48c5.066,0.426,7.72,0.933,7.96,1.52c0.213,0.613,0.268,1.066,0.16,1.359
		c-0.053,0.134-0.134,0.214-0.24,0.24c-0.347,0.4-0.986,0.787-1.92,1.16C21.273,39.32,18.873,39.586,15.94,39.399z"/>
	
		<linearGradient id="SVGID_4_" gradientUnits="userSpaceOnUse" x1="-0.0029" y1="20.625" x2="20.6721" y2="20.625" gradientTransform="matrix(0.8 0 0 0.8 9.1004 8.0002)">
		<stop  offset="0" style="stop-color:#175EB0"/>
		<stop  offset="1" style="stop-color:#043063"/>
	</linearGradient>
	<path style="fill-rule:evenodd;clip-rule:evenodd;fill:url(#SVGID_4_);" d="M24.38,10.4c0.187,0.347,0.44,0.64,0.76,0.88
		c0.373,0.293,0.547,0.747,0.521,1.36v23.32c0,0.853-0.813,1.6-2.44,2.239c-1.626,0.613-3.573,0.921-5.84,0.921
		s-4.213-0.308-5.84-0.921C9.914,37.56,9.1,36.813,9.1,35.96l0.04-0.04H9.1V12.64c-0.026-0.613,0.16-1.066,0.56-1.36
		c0.48-0.373,0.8-0.813,0.96-1.32c3.893,0,5.986-0.027,6.28-0.08l0.48,0.04L17.9,9.88l6.279,0.08L24.38,10.4z"/>
	
		<linearGradient id="SVGID_5_" gradientUnits="userSpaceOnUse" x1="0.0249" y1="13.0811" x2="20.6749" y2="13.0811" gradientTransform="matrix(0.8 0 0 0.8 9.1004 8.0002)">
		<stop  offset="0" style="stop-color:#639DE0"/>
		<stop  offset="1" style="stop-color:#053C7A"/>
	</linearGradient>
	<path style="fill-rule:evenodd;clip-rule:evenodd;fill:url(#SVGID_5_);" d="M25.66,16.36V27l-0.44,0.04
		c-1.573,0.08-3.12-0.348-4.64-1.28l-1.8-1.439c-4-0.854-6.907-1.707-8.72-2.561l-0.96-0.44V19.56c1.546,1.066,3.4,1.947,5.56,2.64
		c2.986,0.96,4.92,1.439,5.8,1.439c0.187,0.027,0.294,0.014,0.32-0.04c0.08-0.08-0.294-0.28-1.12-0.6
		c-1.387-0.561-2.96-1.267-4.72-2.12c-2.347-1.12-4.053-2.08-5.12-2.88L9.1,17.48v-2.52c4.346,3.92,7.586,6.387,9.72,7.4l3.76,1.8
		c-3.467-2.934-5.8-5.054-7-6.36c-0.827-0.907-1.76-2.053-2.8-3.44c-0.934-1.253-1.467-2.04-1.6-2.36
		c-0.24-0.72-0.48-1.293-0.72-1.72l0.16-0.32l1.12-0.04l0.8,1.8c0.187,0.48,0.986,1.707,2.4,3.68c1.68,2.374,3.147,4.146,4.4,5.32
		L21.78,23l-0.32-0.64c-0.16-0.428-0.733-1.587-1.72-3.48c-1.04-2.026-1.733-3.44-2.08-4.24c-0.373-0.827-0.707-1.653-1-2.479
		c-0.24-0.72-0.414-1.187-0.521-1.4c-0.186-0.32-0.013-0.614,0.521-0.88h1.52c0.107,0.187,0.267,0.84,0.48,1.96
		c0.267,1.253,0.507,2.173,0.72,2.76c0.214,0.586,0.773,2.267,1.681,5.04c0.879,2.587,1.506,4.106,1.879,4.561
		c0.268,0.32,0.387,0.453,0.36,0.399c-0.267-0.533-0.453-1.133-0.561-1.8c-0.293-1.547-0.666-4.36-1.119-8.44
		c-0.16-1.36-0.413-2.6-0.76-3.72c-0.08-0.32-0.014-0.56,0.2-0.72h0.999v0.04c0.267,1.414,0.4,2.133,0.4,2.16
		c0.08,0.187,0.173,1.507,0.279,3.96c0.107,2.773,0.268,4.866,0.48,6.28c0.106,0.746,0.267,1.986,0.48,3.719L23.979,13.4
		c0.027-1.013-0.014-1.773-0.119-2.28c-0.214-0.667-0.294-1.066-0.24-1.2l0.56,0.04l0.2,0.44c0.187,0.347,0.44,0.64,0.76,0.88v0.04
		c-0.053,1.573-0.213,3.4-0.479,5.48c-0.081,0.88-0.187,2.213-0.32,4c-0.106,1.653-0.16,2.64-0.16,2.96
		c0,0.4,0.173,0.347,0.521-0.16c0.32-0.507,0.439-1.16,0.359-1.96c-0.053-0.4-0.133-0.934-0.239-1.6
		c-0.054-0.294-0.054-0.587,0-0.88C24.899,18.76,25.18,17.826,25.66,16.36z"/>
	
		<linearGradient id="SVGID_6_" gradientUnits="userSpaceOnUse" x1="0.0249" y1="24.5508" x2="20.6749" y2="24.5508" gradientTransform="matrix(0.8 0 0 0.8 9.1004 8.0002)">
		<stop  offset="0" style="stop-color:#D0E4FF"/>
		<stop  offset="1" style="stop-color:#8DABCF"/>
	</linearGradient>
	<path style="fill-rule:evenodd;clip-rule:evenodd;fill:url(#SVGID_6_);" d="M17.58,16.16l0.64,1.04
		c0.454,0.8,0.761,1.454,0.92,1.96c0.16,0.586,0.294,0.986,0.4,1.2c0.054,0.106,0.267,0.386,0.64,0.84
		c0.427,0.533,0.681,0.933,0.76,1.199c0.32-0.267,0.561-0.6,0.721-1l1.16-1.96l0.319,0.28c0.213,0.24,0.347,0.453,0.4,0.641
		c0.133,0.533,0.239,0.76,0.32,0.68c0.053-0.027,0.119-0.054,0.199-0.08c0.054-0.054,0.094-0.227,0.12-0.521
		c0-0.187,0.067-0.453,0.2-0.8c0.133-0.32,0.199-0.626,0.199-0.92c0.027-0.32,0.134-0.813,0.32-1.48l0.32-0.92l0.44,1.88v17.76
		c0,0.853-0.813,1.6-2.44,2.239c-1.626,0.613-3.573,0.921-5.84,0.921s-4.213-0.308-5.84-0.921C9.914,37.56,9.1,36.813,9.1,35.96
		l0.04-0.04H9.1V25.68c0.133-0.106,0.32-0.187,0.56-0.24c0.213-0.079,0.453-0.253,0.72-0.52c0.4-0.507,0.666-0.841,0.8-1
		c0.187-0.267,0.333-0.333,0.44-0.2c0.16,0.187,0.48,0.359,0.96,0.52c0.133-0.213,0.374-0.453,0.72-0.72
		c0.32-0.239,0.507-0.427,0.561-0.56c0.133-0.293,0.4-0.641,0.8-1.04c0.267-0.267,0.507-0.587,0.72-0.96L17.58,16.16z"/>
	
		<linearGradient id="SVGID_7_" gradientUnits="userSpaceOnUse" x1="4.3252" y1="27.9727" x2="20.6753" y2="27.9727" gradientTransform="matrix(0.8 0 0 0.8 9.1004 8.0002)">
		<stop  offset="0" style="stop-color:#175EB0"/>
		<stop  offset="1" style="stop-color:#043063"/>
	</linearGradient>
	<path style="fill-rule:evenodd;clip-rule:evenodd;fill:url(#SVGID_7_);" d="M13.18,26.239c-0.293-0.319-0.48-0.746-0.56-1.279
		l-0.04-0.721c0.4,1.04,0.653,1.613,0.76,1.721l0.88,0.84c0.587,0.533,0.92,1.066,1,1.6c0.08,0.613-0.133,1.479-0.64,2.601
		c-0.56,1.173-0.56,2.053,0,2.64c0.56,0.587,1.813,1.013,3.76,1.28c2.48,0.293,4.92-0.48,7.32-2.32v2.2
		c-2.613,1.439-5.44,1.974-8.48,1.6c-1.386-0.187-2.506-0.666-3.36-1.439c-0.64-0.587-0.987-1.174-1.04-1.761
		c-0.054-0.293,0.093-0.8,0.439-1.52c0.347-0.746,0.747-1.359,1.2-1.84C15.06,29.173,14.646,27.973,13.18,26.239z"/>
	
		<linearGradient id="SVGID_8_" gradientUnits="userSpaceOnUse" x1="6.7749" y1="14.9873" x2="11.9249" y2="14.9873" gradientTransform="matrix(0.8 0 0 0.8 9.1004 8.0002)">
		<stop  offset="0" style="stop-color:#DAE4F2"/>
		<stop  offset="1" style="stop-color:#95BFF0"/>
	</linearGradient>
	<path style="fill-rule:evenodd;clip-rule:evenodd;fill:url(#SVGID_8_);" d="M16.98,22.76c-0.16,0.054-0.44-0.026-0.84-0.24
		c-0.373-0.213-0.76-0.187-1.16,0.08c-0.151,0.108-0.278,0.222-0.38,0.34c0.264-0.354,0.457-0.653,0.58-0.899
		c0.4-0.427,0.667-0.801,0.8-1.12c0.187-0.667,0.414-1.293,0.68-1.88l0.92-2l0.4,2.32c0.026,0.347,0.119,0.76,0.279,1.24
		c0.187,0.533,0.307,0.974,0.36,1.32c0.054,0.399,0.026,0.467-0.08,0.2c-0.187-0.507-0.32-0.801-0.4-0.881
		c-0.133-0.133-0.253-0.079-0.359,0.16c-0.214,0.507-0.334,0.773-0.36,0.801C17.207,22.52,17.061,22.706,16.98,22.76z"/>
	
		<linearGradient id="SVGID_9_" gradientUnits="userSpaceOnUse" x1="1.3623" y1="21.2695" x2="3.5373" y2="21.2695" gradientTransform="matrix(0.8 0 0 0.8 9.1004 8.0002)">
		<stop  offset="0" style="stop-color:#EDEFF2"/>
		<stop  offset="1" style="stop-color:#C2D7F0"/>
	</linearGradient>
	<path style="fill-rule:evenodd;clip-rule:evenodd;fill:url(#SVGID_9_);" d="M11.46,24.16l0.279,1.16c0,0.213,0.067,0.372,0.2,0.479
		c0.027,0.08-0.04,0.093-0.2,0.04c-0.266-0.106-0.52-0.214-0.76-0.319c-0.293-0.134-0.52-0.2-0.68-0.2l-0.12,0.04
		c0.293-0.16,0.52-0.334,0.68-0.521L11.46,24.16z"/>
	
		<linearGradient id="SVGID_10_" gradientUnits="userSpaceOnUse" x1="15.1377" y1="17.7754" x2="17.2627" y2="17.7754" gradientTransform="matrix(0.8 0 0 0.8 9.1004 8.0002)">
		<stop  offset="0" style="stop-color:#A7C9F2"/>
		<stop  offset="1" style="stop-color:#95BFF0"/>
	</linearGradient>
	<path style="fill-rule:evenodd;clip-rule:evenodd;fill:url(#SVGID_10_);" d="M22.779,20.04l0.081,0.6
		c0.079,0.48,0.105,0.906,0.079,1.28v1.52c0,0.613-0.133,0.934-0.399,0.96c-0.32-0.399-0.561-0.746-0.72-1.039l-0.48-0.601
		l-0.12-0.36c0.16-0.239,0.347-0.467,0.561-0.68c0.106-0.133,0.253-0.387,0.439-0.76L22.779,20.04z"/>
	
		<use xlink:href="#flash0.ai_x5F_2_x2F_Layer_13_copy_x2F__x3C_Path_x3E__x5F_13"  width="8.4" height="36.45" y="-36.45" transform="matrix(0.8 0 0 -0.8 10.25 9.8999)" style="overflow:visible;opacity:0.2617;enable-background:new    ;"/>
	
		<use xlink:href="#flash0.ai_x5F_2_x2F_Layer_13_copy_x2F__x3C_Path_x3E__x5F_12"  width="17.55" height="4.65" y="-4.65" transform="matrix(0.8 0 0 -0.8 10.5 8.6001)" style="overflow:visible;opacity:0.6719;enable-background:new    ;"/>
	
		<linearGradient id="SVGID_11_" gradientUnits="userSpaceOnUse" x1="1.1499" y1="2.25" x2="19.25" y2="2.25" gradientTransform="matrix(0.8 0 0 0.8 9.1004 8.0002)">
		<stop  offset="0" style="stop-color:#FFCC69"/>
		<stop  offset="1" style="stop-color:#804300"/>
	</linearGradient>
	<path style="fill-rule:evenodd;clip-rule:evenodd;fill:url(#SVGID_11_);" d="M24.5,9.8c0,0.507-0.707,0.934-2.12,1.28
		c-1.413,0.346-3.12,0.52-5.12,0.52c-2,0-3.706-0.174-5.12-0.52c-1.414-0.347-2.12-0.773-2.12-1.28c0-0.506,0.707-0.933,2.12-1.28
		S15.26,8,17.26,8c2,0,3.707,0.173,5.12,0.52S24.5,9.293,24.5,9.8z"/>
	
		<linearGradient id="SVGID_12_" gradientUnits="userSpaceOnUse" x1="2.4395" y1="2.5024" x2="18.8391" y2="2.5024" gradientTransform="matrix(0.7976 -0.0622 0.0622 0.7976 9.1004 8)">
		<stop  offset="0" style="stop-color:#A17B30"/>
		<stop  offset="1" style="stop-color:#804300"/>
	</linearGradient>
	<path style="fill-rule:evenodd;clip-rule:evenodd;fill:url(#SVGID_12_);" d="M23.779,9.36c0,0.32-0.626,0.6-1.879,0.84
		c-1.254,0.213-2.773,0.32-4.561,0.32c-1.786,0-3.293-0.107-4.52-0.32c-1.253-0.24-1.88-0.52-1.88-0.84c0-0.32,0.627-0.587,1.88-0.8
		c1.227-0.24,2.734-0.36,4.52-0.36c1.787,0,3.307,0.12,4.561,0.36C23.153,8.773,23.779,9.04,23.779,9.36z"/>
	
		<linearGradient id="SVGID_13_" gradientUnits="userSpaceOnUse" x1="3.1333" y1="2.7305" x2="18.2042" y2="2.7305" gradientTransform="matrix(0.7976 -0.0624 0.0624 0.7976 9.0998 7.9995)">
		<stop  offset="0" style="stop-color:#FFCC69"/>
		<stop  offset="1" style="stop-color:#804300"/>
	</linearGradient>
	<path style="fill-rule:evenodd;clip-rule:evenodd;fill:url(#SVGID_13_);" d="M23.34,9.56c0,0.267-0.587,0.494-1.76,0.68
		c-1.146,0.187-2.533,0.28-4.16,0.28c-1.6,0-2.987-0.093-4.16-0.28c-1.147-0.186-1.72-0.413-1.72-0.68s0.573-0.506,1.72-0.72
		c1.146-0.187,2.533-0.28,4.16-0.28c1.627,0,3.014,0.093,4.16,0.28C22.753,9.054,23.34,9.293,23.34,9.56z"/>
	<g>
		
			<linearGradient id="SVGID_14_" gradientUnits="userSpaceOnUse" x1="2.6123" y1="24.5859" x2="16.4753" y2="24.5859" gradientTransform="matrix(0.7992 0.0346 0.0314 0.8021 9.1 7.9998)">
			<stop  offset="0" style="stop-color:#114785"/>
			<stop  offset="1" style="stop-color:#03264F"/>
		</linearGradient>
		<path style="fill-rule:evenodd;clip-rule:evenodd;fill:url(#SVGID_14_);" d="M18.939,26.16c0.16-0.214,0.294-0.334,0.4-0.36
			c0.054-0.026,0.12,0,0.2,0.08c-0.08,0.213-0.12,0.399-0.12,0.56l0.44,2.36c0.079,0.32,0.066,0.666-0.04,1.04
			c-0.027,0.347-0.16,0.652-0.4,0.92c-0.213,0.24-0.48,0.427-0.8,0.561c-0.267,0.079-0.493,0.079-0.681,0
			c-0.213-0.081-0.359-0.254-0.439-0.521l-0.08-0.24l0.28-0.439l0.2-0.2c0.08-0.054,0.146,0,0.199,0.159l0.12,0.521
			c0.134,0.32,0.294,0.439,0.48,0.36c0.239-0.081,0.373-0.334,0.399-0.761c0.027-0.347-0.039-0.906-0.199-1.68
			c-0.16-0.613-0.24-1.133-0.24-1.56C18.713,26.613,18.807,26.347,18.939,26.16z M17.62,27.439c0.106,0.24,0.267,0.36,0.479,0.36
			l0.08,0.079L18.22,28c0.026,0.026-0.026,0.12-0.159,0.279l-0.28,0.24c-0.08,0.027-0.187-0.027-0.32-0.16
			c-0.106-0.08-0.214-0.227-0.32-0.439c-0.106-0.294-0.12-0.654-0.04-1.08c0.08-0.4,0.28-0.761,0.601-1.08
			c0.319-0.347,0.706-0.6,1.16-0.76c0.533-0.187,0.986-0.2,1.359-0.04c0.4,0.16,0.681,0.439,0.841,0.84
			c0.213,0.613,0,1.16-0.641,1.64c0.613,0,1.04,0.307,1.28,0.92c0.16,0.48,0.16,0.92,0,1.32c-0.16,0.453-0.44,0.733-0.84,0.84
			c-0.214,0.054-0.374,0.054-0.48,0c-0.106-0.027-0.187-0.106-0.24-0.24L20.1,29.92c0.054-0.16,0.107-0.24,0.16-0.24
			c0.08-0.027,0.174,0.066,0.28,0.28c0.08,0.213,0.16,0.293,0.24,0.239c0.159-0.053,0.213-0.279,0.159-0.68L20.7,28.32
			c-0.16-0.48-0.387-0.694-0.681-0.641l-0.08-0.28c0.24-0.079,0.374-0.239,0.4-0.479c0-0.347-0.04-0.6-0.12-0.76
			c-0.133-0.374-0.319-0.613-0.56-0.721c-0.24-0.133-0.533-0.16-0.88-0.079c-0.427,0.16-0.761,0.453-1,0.879
			C17.54,26.666,17.486,27.066,17.62,27.439z"/>
		
			<linearGradient id="SVGID_15_" gradientUnits="userSpaceOnUse" x1="-6.3398" y1="29.2373" x2="8.3667" y2="29.2373" gradientTransform="matrix(0.7547 -0.2652 0.2652 0.7547 9.1002 7.9999)">
			<stop  offset="0" style="stop-color:#114785"/>
			<stop  offset="1" style="stop-color:#03264F"/>
		</linearGradient>
		<path style="fill-rule:evenodd;clip-rule:evenodd;fill:url(#SVGID_15_);" d="M23.42,25.92l0.12,1.959l0.08,0.441
			c0.053,0.105,0.106,0.172,0.159,0.199c0.027,0.08,0.094,0.094,0.2,0.04l0.16-0.16l0.28-0.68l0.159,0.44
			c-0.319,0.826-0.613,1.279-0.879,1.359c-0.134,0.054-0.267,0.027-0.4-0.08c-0.107-0.053-0.2-0.2-0.279-0.439
			c-0.134-0.4-0.147-0.934-0.041-1.601l-0.439,0.4c-0.054,0.373-0.146,0.773-0.28,1.2h-0.08l-0.12-0.32l0.2-0.84
			c-0.24-0.054-0.373-0.16-0.399-0.32c-0.054-0.133-0.08-0.359-0.08-0.68c0.053-0.267,0.173-0.427,0.359-0.479
			c0.16-0.081,0.267-0.014,0.32,0.199c0.08,0.16,0.12,0.4,0.12,0.72c0.347-0.159,0.533-0.587,0.56-1.279L23.42,25.92z"/>
		
			<linearGradient id="SVGID_16_" gradientUnits="userSpaceOnUse" x1="12.2627" y1="23.7393" x2="18.4377" y2="23.7393" gradientTransform="matrix(0.8 0 0 0.8 9.1004 8.0002)">
			<stop  offset="0" style="stop-color:#114785"/>
			<stop  offset="1" style="stop-color:#03264F"/>
		</linearGradient>
		<path style="fill-rule:evenodd;clip-rule:evenodd;fill:url(#SVGID_16_);" d="M25.3,25.12v0.279
			c-0.187,0.054-0.307,0.254-0.36,0.601c-0.053,0.399-0.013,0.826,0.12,1.279c0.027,0.213,0.094,0.428,0.2,0.641l0.36-0.041v0.961
			c-0.268,0.08-0.533-0.054-0.8-0.4c-0.16-0.187-0.28-0.467-0.36-0.84c-0.134-0.64-0.12-1.187,0.04-1.64
			C24.66,25.479,24.927,25.2,25.3,25.12z"/>
	</g>
	
		<linearGradient id="SVGID_17_" gradientUnits="userSpaceOnUse" x1="2.7358" y1="3.9902" x2="15.199" y2="3.9902" gradientTransform="matrix(0.7975 -0.0626 0.0626 0.7975 9.0999 7.9999)">
		<stop  offset="0" style="stop-color:#FFDFA1"/>
		<stop  offset="1" style="stop-color:#D49148"/>
	</linearGradient>
	<path style="fill-rule:evenodd;clip-rule:evenodd;fill:url(#SVGID_17_);" d="M11.82,10.28c1.414,0.293,2.654,0.48,3.72,0.56
		c2.293,0.16,4.134,0.12,5.521-0.12c-0.961,0.454-2.681,0.626-5.161,0.52c-2.187-0.106-3.667-0.346-4.439-0.72
		c-0.214-0.133-0.254-0.213-0.121-0.24C11.474,10.227,11.633,10.227,11.82,10.28z"/>
	
		<use xlink:href="#flash0.ai_x5F_2_x2F_Layer_13_copy_x2F__x3C_Path_x3E__x5F_7"  width="2.8" height="32.1" y="-32.1" transform="matrix(0.8 0 0 -0.8 22.1504 12.8501)" style="overflow:visible;opacity:0.2305;enable-background:new    ;"/>
	
		<linearGradient id="SVGID_18_" gradientUnits="userSpaceOnUse" x1="2.9873" y1="21.625" x2="4.1123" y2="21.625" gradientTransform="matrix(0.8 0 0 0.8 9.1004 8.0002)">
		<stop  offset="0" style="stop-color:#A7C9F2"/>
		<stop  offset="1" style="stop-color:#95BFF0"/>
	</linearGradient>
	<path style="fill-rule:evenodd;clip-rule:evenodd;fill:url(#SVGID_18_);" d="M11.46,24.16l0.359,0.079l0.56,0.2l-0.16,0.721
		c0,0.453-0.066,0.773-0.2,0.96l-0.24,0.319L11.46,24.16z"/>
	
		<linearGradient id="SVGID_19_" gradientUnits="userSpaceOnUse" x1="10.5752" y1="16.5005" x2="17.5249" y2="16.5005" gradientTransform="matrix(0.8 0 0 0.8 9.1004 8.0002)">
		<stop  offset="0" style="stop-color:#638BBF"/>
		<stop  offset="1" style="stop-color:#5681B3"/>
	</linearGradient>
	<path style="fill-rule:evenodd;clip-rule:evenodd;fill:url(#SVGID_19_);" d="M17.58,17.04c0.106,0.107,0.267,0.307,0.48,0.6
		c0.213,0.32,0.346,0.587,0.399,0.8l0.521,1.681c0.133,0.399,0.426,0.84,0.88,1.319c0.586,0.641,0.92,1.027,1,1.16
		c0.106,0.214,0.413,0.627,0.92,1.24c0.506,0.667,0.84,1.067,0.999,1.2l0.36,0.32c-0.88-0.24-1.6-0.627-2.159-1.16
		c-0.881-0.827-1.467-1.28-1.761-1.36l-0.8-0.32l0.04-0.88c0-0.187-0.054-0.387-0.16-0.6c-0.16-0.24-0.253-0.467-0.28-0.68
		c-0.053-0.427-0.133-0.827-0.239-1.2c-0.134-0.4-0.2-0.867-0.2-1.4V17.04z"/>
	
		<linearGradient id="SVGID_20_" gradientUnits="userSpaceOnUse" x1="17.0254" y1="17.7979" x2="18.2754" y2="17.7979" gradientTransform="matrix(0.8 0 0 0.8 9.1004 8.0002)">
		<stop  offset="0" style="stop-color:#638BBF"/>
		<stop  offset="1" style="stop-color:#5681B3"/>
	</linearGradient>
	<path style="fill-rule:evenodd;clip-rule:evenodd;fill:url(#SVGID_20_);" d="M23.7,21.6c0.053,0.32,0.026,0.627-0.08,0.92
		c-0.373,1.04-0.533,1.614-0.48,1.72c0.053,0.188-0.08,0.24-0.4,0.16v-0.84c0.027-0.934,0.054-1.653,0.081-2.16l-0.041-1.359
		L23.54,21L23.7,21.6z"/>
	
		<linearGradient id="SVGID_21_" gradientUnits="userSpaceOnUse" x1="20.1875" y1="13.4746" x2="20.7125" y2="13.4746" gradientTransform="matrix(0.8 0 0 0.8 9.1004 8.0002)">
		<stop  offset="0" style="stop-color:#638BBF"/>
		<stop  offset="1" style="stop-color:#5681B3"/>
	</linearGradient>
	<path style="fill-rule:evenodd;clip-rule:evenodd;fill:url(#SVGID_21_);" d="M25.26,16.92l0.4,1.28l-0.04,1.24
		c0,0.454-0.08,0.854-0.24,1.2L25.26,20c-0.053-0.293-0.053-0.773,0-1.44c0.054-0.427,0.066-0.827,0.04-1.2L25.26,16.92z"/>
	
		<linearGradient id="SVGID_22_" gradientUnits="userSpaceOnUse" x1="-9.9126" y1="-2.333" x2="-4.1876" y2="-2.333" gradientTransform="matrix(-0.8 0 0 -0.8 9.0998 7.9998)">
		<stop  offset="0" style="stop-color:#FFCC69"/>
		<stop  offset="1" style="stop-color:#804300"/>
	</linearGradient>
	<path style="fill-rule:evenodd;clip-rule:evenodd;fill:url(#SVGID_22_);" d="M16.42,9.52c0.24,0.026,0.387,0.106,0.44,0.24
		c0.08,0.133-0.067,0.28-0.44,0.44s-1.093,0.213-2.16,0.16c-1.014-0.08-1.614-0.2-1.8-0.36s-0.053-0.307,0.4-0.44
		c0.426-0.106,1.013-0.173,1.76-0.2C15.554,9.333,16.153,9.387,16.42,9.52z"/>
	<path style="fill-rule:evenodd;clip-rule:evenodd;fill:#472F00;" d="M16.42,9.8c0.24,0.027,0.387,0.08,0.44,0.16
		c0.08,0.08-0.054,0.173-0.4,0.28c-0.347,0.107-1.014,0.147-2,0.121c-0.96-0.054-1.533-0.134-1.72-0.24
		c-0.16-0.107-0.026-0.2,0.4-0.28c0.4-0.08,0.934-0.133,1.6-0.16C15.62,9.68,16.18,9.72,16.42,9.8z"/>
	
		<use xlink:href="#flash0.ai_x5F_2_x2F_Layer_13_copy_x2F__x3C_Path_x3E_"  width="8.03" height="2.513" y="-2.513" transform="matrix(0.8 0 0 -0.8 16.7002 8.0498)" style="overflow:visible;opacity:0.4609;enable-background:new    ;"/>
	
		<linearGradient id="SVGID_23_" gradientUnits="userSpaceOnUse" x1="9.2842" y1="2.2773" x2="17.5348" y2="2.2773" gradientTransform="matrix(0.7975 -0.063 0.063 0.7975 9.1003 8)">
		<stop  offset="0" style="stop-color:#8F8F8F"/>
		<stop  offset="1" style="stop-color:#4D4D4D"/>
	</linearGradient>
	<path style="fill-rule:evenodd;clip-rule:evenodd;fill:url(#SVGID_23_);" d="M20.061,8.56c-0.428,0.16-0.494,0.347-0.2,0.56
		c0.479,0.32,1.093,0.307,1.84-0.04c0.693-0.293,0.479-0.52-0.64-0.68C20.767,8.347,20.434,8.4,20.061,8.56z M19.34,9.52
		c0.134-0.053,0.187-0.12,0.16-0.2c-0.054-0.106-0.187-0.2-0.4-0.28C18.833,8.987,18.606,9,18.42,9.08S18.193,9.267,18.3,9.4
		C18.514,9.613,18.86,9.653,19.34,9.52z M22.26,8.28c0.561,0.213,0.787,0.413,0.68,0.6c-0.079,0.16-0.68,0.374-1.8,0.64
		c-1.093,0.24-1.906,0.374-2.439,0.4c-0.64,0.026-1.026,0.026-1.16,0c-0.32-0.026-0.613-0.16-0.88-0.4c-0.32-0.24-0.12-0.4,0.6-0.48
		c0.187,0,0.801-0.173,1.84-0.52c0.987-0.32,1.601-0.48,1.84-0.48C21.34,8.04,21.78,8.12,22.26,8.28z"/>
	
		<linearGradient id="SVGID_24_" gradientUnits="userSpaceOnUse" x1="9.355" y1="2.0957" x2="17.504" y2="2.0957" gradientTransform="matrix(0.7976 -0.0614 0.0614 0.7976 9.1 7.9999)">
		<stop  offset="0" style="stop-color:#FFFFFF"/>
		<stop  offset="1" style="stop-color:#949494"/>
	</linearGradient>
	<path style="fill-rule:evenodd;clip-rule:evenodd;fill:url(#SVGID_24_);" d="M20.061,8.36c-0.428,0.16-0.494,0.346-0.2,0.56
		c0.479,0.32,1.093,0.307,1.84-0.04c0.693-0.293,0.479-0.52-0.64-0.68C20.767,8.146,20.434,8.2,20.061,8.36z M19.34,9.32
		c0.134-0.053,0.187-0.12,0.16-0.2c-0.054-0.107-0.187-0.2-0.4-0.28c-0.267-0.053-0.493-0.04-0.68,0.04S18.193,9.067,18.3,9.2
		C18.514,9.413,18.86,9.454,19.34,9.32z M22.18,8.24c0.533,0.134,0.786,0.28,0.76,0.44c-0.026,0.16-0.626,0.374-1.8,0.64
		c-1.066,0.24-1.88,0.374-2.439,0.4c-0.64,0.027-1.026,0.027-1.16,0c-0.32-0.026-0.613-0.16-0.88-0.4
		c-0.187-0.133,0.133-0.253,0.96-0.36c0.187-0.027,0.72-0.2,1.6-0.52C20.073,8.146,20.62,8,20.86,8C21.233,8,21.674,8.08,22.18,8.24
		z"/>
</g>
</svg>
