<?xml version="1.0" encoding="UTF-8" standalone="no"?>
<!-- Generator: Adobe Illustrator 16.0.0, SVG Export Plug-In . SVG Version: 6.00 Build 0)  -->

<svg
   xmlns:dc="http://purl.org/dc/elements/1.1/"
   xmlns:cc="http://creativecommons.org/ns#"
   xmlns:rdf="http://www.w3.org/1999/02/22-rdf-syntax-ns#"
   xmlns:svg="http://www.w3.org/2000/svg"
   xmlns="http://www.w3.org/2000/svg"
   xmlns:sodipodi="http://sodipodi.sourceforge.net/DTD/sodipodi-0.dtd"
   xmlns:inkscape="http://www.inkscape.org/namespaces/inkscape"
   version="1.1"
   id="レイヤー_1"
   x="0px"
   y="0px"
   width="126.07781"
   height="106.75637"
   viewBox="0 0 126.07781 106.75637"
   enable-background="new 0 0 128 128"
   xml:space="preserve"
   inkscape:version="0.91 r13725"
   sodipodi:docname="cat_tongue.svg"><metadata
     id="metadata5698"><rdf:RDF><cc:Work
         rdf:about=""><dc:format>image/svg+xml</dc:format><dc:type
           rdf:resource="http://purl.org/dc/dcmitype/StillImage" /><dc:title></dc:title></cc:Work></rdf:RDF></metadata><defs
     id="defs5696" /><sodipodi:namedview
     pagecolor="#ffffff"
     bordercolor="#666666"
     borderopacity="1"
     objecttolerance="10"
     gridtolerance="10"
     guidetolerance="10"
     inkscape:pageopacity="0"
     inkscape:pageshadow="2"
     inkscape:window-width="640"
     inkscape:window-height="480"
     id="namedview5694"
     showgrid="false"
     fit-margin-top="0"
     fit-margin-left="0"
     fit-margin-right="0"
     fit-margin-bottom="0"
     inkscape:zoom="5.265625"
     inkscape:cx="34.168402"
     inkscape:cy="56.92"
     inkscape:current-layer="レイヤー_1" /><g
     id="g5630"
     transform="translate(-1.3449512,-14.163626)"><path
       d="m 125.47,86.16 -8.27,-1.49 c 0.1,-1.84 0.09,-3.7 0,-5.56 l 8.4,-1.25 c 1.17,-0.17 1.97,-1.26 1.8,-2.42 -0.17,-1.16 -1.26,-1.96 -2.42,-1.8 l -8.18,1.22 c -0.9,-5.98 -3.2,-11.94 -6.68,-17.31 1.05,-10.02 3.06,-37.18 -5.09,-42.65 -6.5,-4.36 -21.96,11.82 -26.94,17.63 -1.15,1.34 -2.2,2.55 -3.16,3.65 -3.48,-0.53 -7.02,-0.82 -10.55,-0.82 -3.53,-0.01 -7.06,0.29 -10.54,0.82 -0.96,-1.1 -2.01,-2.31 -3.16,-3.65 C 45.7,26.72 30.24,10.54 23.75,14.9 15.6,20.37 17.62,47.53 18.66,57.55 15.19,62.91 12.87,68.88 11.98,74.86 L 3.8,73.64 C 2.64,73.48 1.55,74.27 1.37,75.44 1.19,76.6 2,77.69 3.16,77.86 l 8.4,1.25 c -0.09,1.86 -0.1,3.72 0,5.56 L 3.3,86.16 c -1.16,0.21 -1.93,1.32 -1.72,2.48 0.19,1.03 1.08,1.75 2.1,1.75 0.12,0 0.25,-0.01 0.38,-0.03 L 12,88.93 c 0.33,2.1 0.81,4.17 1.5,6.18 l -6.48,2.05 c -1.12,0.36 -1.74,1.56 -1.39,2.68 0.29,0.91 1.13,1.49 2.03,1.49 0.22,0 0.43,-0.03 0.65,-0.1 l 6.85,-2.17 c 1.98,3.89 4.88,7.47 8.98,10.53 6.05,4.51 13.57,7.57 21.33,9.23 2.94,0.63 10.56,2.1 18.55,2.1 7.99,0 16.35,-1.47 19.3,-2.1 7.75,-1.66 15.28,-4.72 21.33,-9.23 4.1,-3.06 7,-6.64 8.98,-10.53 l 6.84,2.17 c 0.22,0.07 0.43,0.1 0.65,0.1 0.9,0 1.74,-0.58 2.03,-1.49 0.36,-1.12 -0.26,-2.32 -1.38,-2.68 l -6.48,-2.06 c 0.69,-2 1.18,-4.07 1.5,-6.18 l 7.95,1.43 c 0.12,0.02 0.25,0.03 0.38,0.03 1.01,0 1.91,-0.73 2.1,-1.75 0.18,-1.15 -0.6,-2.26 -1.75,-2.47 z"
       id="path5632"
       inkscape:connector-curvature="0"
       style="fill:#f79329" /><g
       id="g5634"><g
         id="g5636"><g
           id="g5638"><g
             id="g5640"><g
               id="g5642"><g
                 id="g5644"><g
                   id="g5646"><path
                     d="m 70.95,103.19 c 0.21,0.46 -0.17,1.2 -0.28,1.62 -0.14,0.53 -0.27,1.05 -0.43,1.56 -0.76,2.52 -2.06,4.88 -4.85,5.43 -2.58,0.51 -5.06,-1.25 -6.03,-3.58 -0.36,-0.85 -0.64,-1.73 -0.94,-2.6 -0.16,-0.48 -0.32,-0.96 -0.47,-1.43 -0.11,-0.34 -0.4,-0.88 -0.36,-1.23 1.42,-0.09 3.07,-0.73 4.29,-1.45 0.4,-0.24 0.85,-0.37 1.22,-0.66 0.33,-0.26 0.54,-0.63 0.96,-0.76 0.42,0.45 1.13,0.7 1.65,1.05 0.63,0.42 1.27,0.79 1.95,1.11 0.63,0.3 1.38,0.3 2.03,0.47 0.34,0.09 0.91,0.04 1.16,0.33 0.05,0.04 0.08,0.08 0.1,0.14 z"
                     id="path5648"
                     inkscape:connector-curvature="0"
                     style="fill:#ed6c30" /></g></g></g></g><g
             id="g5650"><g
               id="g5652"><g
                 id="g5654"><g
                   id="g5656"><g
                     id="g5658"><path
                       d="m 46.92,81.07 c 0,4.59 -3.31,8.3 -7.38,8.3 -4.07,0 -7.38,-3.72 -7.38,-8.3 0,-4.6 3.31,-8.31 7.38,-8.31 4.07,-0.01 7.38,3.71 7.38,8.31 z"
                       id="path5660"
                       inkscape:connector-curvature="0"
                       style="fill:#2f2f2f" /></g><g
                     id="g5662"><path
                       d="m 81.26,81.07 c 0,4.59 3.3,8.3 7.38,8.3 4.07,0 7.38,-3.72 7.38,-8.3 0,-4.6 -3.31,-8.31 -7.38,-8.31 -4.07,-0.01 -7.38,3.71 -7.38,8.31 z"
                       id="path5664"
                       inkscape:connector-curvature="0"
                       style="fill:#2f2f2f" /></g></g></g></g><path
               d="m 64.48,101.33 c -0.77,0 -1.39,-0.62 -1.39,-1.39 l 0,-8.15 c 0,-0.77 0.62,-1.39 1.39,-1.39 0.77,0 1.39,0.62 1.39,1.39 l 0,8.15 c 0,0.77 -0.62,1.39 -1.39,1.39 z"
               id="path5666"
               inkscape:connector-curvature="0"
               style="fill:#2f2f2f" /><g
               id="g5668"><path
                 d="m 57.49,104.6 c -0.43,0 -0.89,-0.02 -1.36,-0.06 -5.66,-0.5 -8.15,-4.89 -8.68,-7.15 -0.21,-0.92 0.36,-1.84 1.28,-2.05 0.92,-0.22 1.83,0.35 2.05,1.27 0.05,0.21 1.11,4.12 5.65,4.53 4.75,0.43 6.59,-2.06 6.67,-2.17 0.55,-0.76 1.6,-0.95 2.37,-0.42 0.77,0.53 0.97,1.57 0.45,2.35 -0.11,0.16 -2.57,3.7 -8.43,3.7 z"
                 id="path5670"
                 inkscape:connector-curvature="0"
                 style="fill:#2f2f2f" /><path
                 d="m 71.52,104.6 c -5.86,0 -8.32,-3.54 -8.43,-3.7 -0.53,-0.78 -0.32,-1.85 0.46,-2.38 0.79,-0.53 1.85,-0.32 2.38,0.46 0.06,0.08 1.93,2.57 6.65,2.15 4.63,-0.41 5.64,-4.48 5.65,-4.52 0.22,-0.92 1.14,-1.49 2.05,-1.28 0.92,0.22 1.49,1.13 1.28,2.05 -0.53,2.25 -3.03,6.65 -8.68,7.15 -0.48,0.05 -0.93,0.07 -1.36,0.07 z"
                 id="path5672"
                 inkscape:connector-curvature="0"
                 style="fill:#2f2f2f" /></g><g
               id="g5674"><g
                 id="g5676"><g
                   id="g5678"><g
                     id="g5680"><g
                       id="g5682"><g
                         id="g5684"><path
                           d="m 59.22,91.73 c 0.08,1.05 0.79,2.15 1.89,2.82 0.88,0.55 2.13,0.82 3.36,0.82 1.22,0 2.47,-0.27 3.35,-0.82 1.1,-0.68 1.81,-1.77 1.89,-2.82 0.08,-1 -0.15,-2.02 -1.24,-2.72 -0.6,-0.39 -1.35,-0.65 -2.12,-0.79 -0.29,-0.05 -1.05,-0.18 -1.85,-0.18 -0.79,0 -1.62,0.12 -1.92,0.18 -0.77,0.14 -1.52,0.4 -2.12,0.79 -1.08,0.71 -1.32,1.72 -1.24,2.72 z"
                           id="path5686"
                           inkscape:connector-curvature="0"
                           style="fill:#2f2f2f" /><path
                           d="m 64.43,96.86 c -1.54,0 -3.04,-0.38 -4.11,-1.04 -1.47,-0.91 -2.47,-2.43 -2.59,-3.97 -0.17,-2.24 0.96,-3.45 1.92,-4.08 0.74,-0.47 1.66,-0.82 2.66,-1 0.4,-0.08 1.31,-0.2 2.18,-0.2 0.94,0 1.8,0.14 2.12,0.2 1,0.18 1.92,0.53 2.65,1 0.97,0.63 2.1,1.85 1.92,4.09 -0.12,1.53 -1.11,3.05 -2.59,3.97 -1.07,0.66 -2.57,1.04 -4.11,1.04 l -0.05,0 z m 0.07,-7.33 c -0.68,0 -1.41,0.11 -1.64,0.15 -0.62,0.12 -1.19,0.32 -1.59,0.58 -0.39,0.25 -0.62,0.57 -0.56,1.35 0.05,0.6 0.51,1.25 1.19,1.67 0.61,0.38 1.56,0.6 2.55,0.6 l 0,1.49 0.02,-1.49 0,0 c 1.03,0 1.98,-0.23 2.58,-0.6 0.67,-0.41 1.15,-1.08 1.19,-1.67 0.07,-0.78 -0.17,-1.1 -0.56,-1.35 C 67.28,90 66.71,89.8 66.1,89.68 65.93,89.66 65.22,89.53 64.5,89.53 Z"
                           id="path5688"
                           inkscape:connector-curvature="0"
                           style="fill:#2f2f2f" /></g></g></g></g></g></g></g></g></g><g
         id="g5690"><path
           d="m 64.48,113.66 c -2.83,0 -5.55,-1.85 -6.76,-4.76 -0.56,-1.35 -1.69,-4.89 -1.74,-5.04 -0.3,-0.93 0.22,-1.93 1.15,-2.23 0.93,-0.3 1.93,0.22 2.23,1.15 0.39,1.22 1.23,3.79 1.63,4.75 0.62,1.49 2.26,2.88 4.05,2.53 1.64,-0.32 2.72,-1.62 3.5,-4.2 0.1,-0.35 0.31,-1.14 0.51,-1.88 0.15,-0.58 0.3,-1.14 0.38,-1.43 0.27,-0.94 1.23,-1.49 2.19,-1.22 0.94,0.27 1.49,1.25 1.22,2.19 -0.08,0.28 -0.22,0.81 -0.37,1.37 -0.2,0.77 -0.42,1.6 -0.54,1.99 -0.44,1.44 -1.76,5.78 -6.21,6.66 -0.4,0.08 -0.82,0.12 -1.24,0.12 z"
           id="path5692"
           inkscape:connector-curvature="0"
           style="fill:#2f2f2f" /></g></g></g></svg>