<?xml version="1.0" encoding="UTF-8" standalone="no"?>
<!-- Generator: Adobe Illustrator 15.1.0, SVG Export Plug-In . SVG Version: 6.00 Build 0)  -->

<svg
   xmlns:dc="http://purl.org/dc/elements/1.1/"
   xmlns:cc="http://creativecommons.org/ns#"
   xmlns:rdf="http://www.w3.org/1999/02/22-rdf-syntax-ns#"
   xmlns:svg="http://www.w3.org/2000/svg"
   xmlns="http://www.w3.org/2000/svg"
   xmlns:xlink="http://www.w3.org/1999/xlink"
   xmlns:sodipodi="http://sodipodi.sourceforge.net/DTD/sodipodi-0.dtd"
   xmlns:inkscape="http://www.inkscape.org/namespaces/inkscape"
   version="1.1"
   id="catterpillar"
   x="0px"
   y="0px"
   width="29.5px"
   height="37px"
   viewBox="0 0 29.5 37"
   xml:space="preserve"
   inkscape:version="0.91 r13725"
   sodipodi:docname="caterpillar.svg"
   style="enable-background:new 0 0 29.5 37;"><metadata
     id="metadata4526"><rdf:RDF><cc:Work
         rdf:about=""><dc:format>image/svg+xml</dc:format><dc:type
           rdf:resource="http://purl.org/dc/dcmitype/StillImage" /><dc:title></dc:title></cc:Work></rdf:RDF></metadata><defs
     id="defs4524" /><sodipodi:namedview
     pagecolor="#ffffff"
     bordercolor="#666666"
     borderopacity="1"
     objecttolerance="10"
     gridtolerance="10"
     guidetolerance="10"
     inkscape:pageopacity="0"
     inkscape:pageshadow="2"
     inkscape:window-width="1306"
     inkscape:window-height="974"
     id="namedview4522"
     showgrid="false"
     inkscape:zoom="14.810811"
     inkscape:cx="10.504"
     inkscape:cy="19.2595"
     inkscape:window-x="2036"
     inkscape:window-y="60"
     inkscape:window-maximized="0"
     inkscape:current-layer="catterpillar" /><symbol
     id="_x31_"
     viewBox="0.025 0 6.925 4.45"><g
       id="Layer_1_17_"><path
         style="fill-rule:evenodd;clip-rule:evenodd;fill:#565599;"
         d="M3.25,2.7C2.45,2.167,1.534,1.433,0.5,0.5L0.4,0L0.25,0.25    L0.1,0.1l0.05,0.4c-0.167,0.533-0.167,1.067,0,1.6c0.367,1.133,1.167,1.917,2.4,2.35c-0.733-0.7-1.233-1.367-1.5-2L0.9,2    c0.267,0.367,0.6,0.683,1,0.95C2.867,3.683,4,4.1,5.3,4.2c0.633,0.033,1.183,0,1.65-0.1C5.45,3.767,4.217,3.3,3.25,2.7z"
         id="path4354" /></g></symbol><symbol
     id="_x32_"
     viewBox="-4.35 0 4.328 7.1"><g
       id="Layer_1_16_"><path
         style="fill-rule:evenodd;clip-rule:evenodd;fill:#565599;"
         d="M-1.25,4.4c-0.133,0.533-0.434,1.15-0.9,1.85L-2.8,7.1    l1.2-0.7C-0.766,5.733-0.266,4.933-0.1,4c0.2-1.067,0.017-1.933-0.55-2.6C-0.583,0.833-0.733,0.367-1.1,0    c-0.3,0.9-0.65,1.633-1.05,2.2C-2.417,2.567-2.866,2.967-3.5,3.4l-0.85,0.5l1.45-0.3c1-0.333,1.683-0.833,2.05-1.5l0.05-0.15    C-0.966,3.217-1.116,4.033-1.25,4.4z"
         id="path4358" /></g></symbol><symbol
     id="_x33_"
     viewBox="-4.7 0 4.702 2.52"><g
       id="Layer_1_15_"><path
         style="fill-rule:evenodd;clip-rule:evenodd;fill:#565599;"
         d="M0,0c-0.767,0.7-1.483,1.217-2.15,1.55    c-0.4,0.233-0.95,0.4-1.65,0.5L-4.7,2.1l1.15,0.35c0.867,0.167,1.633,0.033,2.3-0.4C-0.383,1.483,0.033,0.8,0,0z"
         id="path4362" /></g></symbol><symbol
     id="_x34_"
     viewBox="-12.101 0 12.1 6.65"><g
       id="Layer_1_14_"><path
         style="fill-rule:evenodd;clip-rule:evenodd;fill:#565599;"
         d="M-3.601,2.3C-3,2.233-2.55,2.15-2.25,2.05l1-0.5l-0.7,0.7    c-0.3,0.3-0.95,0.7-1.95,1.2L-3.601,2.3z M-8.55,2.3c-0.6,0.2-1.367,0.35-2.3,0.45l-1.25,0.1l1.5,0.25    c1.2,0.1,2.284-0.05,3.25-0.45c0.4-0.167,0.817-0.433,1.25-0.8l0.6,0.2l-0.95,0.8c-0.5,0.367-1.184,0.733-2.05,1.1l-1.2,0.4    l1.55-0.1c1.2-0.2,2.2-0.65,3-1.35l0.6-0.65h0.05l-0.7,1.5C-5.5,4.317-6,4.933-6.7,5.6l-0.95,0.8l1.2-0.45    c0.867-0.434,1.55-1,2.05-1.7c1,0.5,1.933,0.583,2.8,0.25l0.7-0.4l-1.25,1.25c-0.367,0.333-0.883,0.633-1.55,0.9l-0.9,0.35    l1.15,0.05c0.9-0.1,1.667-0.467,2.3-1.1c0.767-0.833,1.117-1.65,1.05-2.45l-0.05,0.05l0.05-0.1C-0.934,3.517-1.667,3.833-2.3,4    c-0.567,0.2-1.25,0.25-2.05,0.15l0.3-0.5c1.367,0,2.433-0.417,3.2-1.25c0.633-0.733,0.883-1.467,0.75-2.2L0,0    c-1.267,0.633-2.4,1.067-3.4,1.3l-0.15,0.05c-0.067-0.4-0.167-0.717-0.3-0.95L-3.9,0.5l-0.95,1h-0.9c0.2-0.267,0.3-0.483,0.3-0.65    l-1.15,0.6L-6.95,1.4l0.2,0.1L-8.55,2.3z"
         id="path4366" /></g></symbol><symbol
     id="_x35_"
     viewBox="-7 0 7.003 5.35"><g
       id="Layer_1_13_"><path
         style="fill-rule:evenodd;clip-rule:evenodd;fill:#565599;"
         d="M-3.75,3.35C-4.25,3.716-4.934,4.066-5.8,4.4L-7,4.8    c0.433,0.067,0.95,0.067,1.55,0c1.2-0.167,2.2-0.6,3-1.3l0.15-0.15C-2.333,3.483-2.434,3.667-2.6,3.9    C-2.833,4.333-3.25,4.7-3.85,5l-0.8,0.35l0.8-0.1c0.633-0.167,1.233-0.434,1.8-0.8c0.967-0.566,1.633-1.3,2-2.2    c0.2-0.5-0.167-0.833-1.1-1c0.034-0.133,0.034-0.233,0-0.3l-0.2,0.25L-1.5,1.15V0.8c-0.034-0.233-0.333-0.4-0.9-0.5    C-2.9,0.1-3.434,0-4,0c-0.567,0-1.083,0.183-1.55,0.55l2.5,0.3c-0.267,0.3-0.667,0.483-1.2,0.55c-0.3,0.033-0.817,0-1.55-0.1    c-0.333-0.033-0.65-0.083-0.95-0.15c0.667,0.6,1.533,0.95,2.6,1.05c1.034,0.1,1.767-0.066,2.2-0.5v0.1    C-2.617,2.466-3.217,2.983-3.75,3.35z"
         id="path4370" /></g></symbol><symbol
     id="_x36_"
     viewBox="-5.6 -1.5 5.6 1.503"><g
       id="Layer_1_11_"><path
         style="fill-rule:evenodd;clip-rule:evenodd;fill:#565599;"
         d="M-2.1,0C-1,0.033-0.3-0.2,0-0.7c-1.067,0.1-2.017,0.1-2.85,0    c-0.8-0.067-1.717-0.333-2.75-0.8C-4.633-0.5-3.467,0-2.1,0z"
         id="path4374" /></g></symbol><symbol
     id="_x37_"
     viewBox="-5.55 0 5.55 1.672"><g
       id="Layer_1_12_"><path
         style="fill-rule:evenodd;clip-rule:evenodd;fill:#565599;"
         d="M-1.7,1.4C-0.667,1.034-0.1,0.567,0,0    c-0.966,0.433-1.85,0.75-2.65,0.95c-0.8,0.2-1.767,0.267-2.9,0.2C-4.283,1.75-3,1.833-1.7,1.4z"
         id="path4378" /></g></symbol><symbol
     id="antenna_x5F_left"
     viewBox="-1.65 -0.375 7.216 9.86"><g
       id="Layer_1_19_"><path
         style="fill-rule:evenodd;clip-rule:evenodd;fill:#4BB6FA;"
         d="M2.15-0.3c-1.167-0.1-1.933-0.1-2.3,0    C-0.383-0.233-0.7,0.033-1.1,0.5l-0.55,0.65c0.167,0.633,0.533,1.5,1.1,2.6c0.533,1,1.15,1.716,1.85,2.15    c0.367,0.233,0.684,0.367,0.95,0.4L2.9,6.15c-0.967-1.067-1.533-2.167-1.7-3.3C1.033,1.683,1.35,0.633,2.15-0.3z"
         id="path4382" /><path
         style="fill-rule:evenodd;clip-rule:evenodd;fill:#64D7FA;"
         d="M5.55,7.15C5.483,6.583,5.217,6.133,4.75,5.8    S3.767,5.333,3.2,5.4C2.633,5.5,2.167,5.767,1.8,6.2C1.467,6.667,1.333,7.183,1.4,7.75C1.5,8.316,1.767,8.767,2.2,9.1    c0.466,0.333,0.983,0.45,1.55,0.35c0.567-0.066,1.033-0.333,1.4-0.8C5.483,8.216,5.617,7.716,5.55,7.15z"
         id="path4384" /><path
         style="fill-rule:evenodd;clip-rule:evenodd;fill:#FFFFFF;"
         d="M4.2,8.05c-0.033-0.267-0.15-0.466-0.35-0.6    c-0.2-0.167-0.434-0.217-0.7-0.15c-0.267,0.034-0.467,0.15-0.6,0.35C2.417,7.85,2.367,8.067,2.4,8.3    c0.033,0.233,0.15,0.434,0.35,0.6C2.917,9.067,3.134,9.133,3.4,9.1c0.267-0.067,0.483-0.2,0.65-0.4    C4.184,8.5,4.234,8.283,4.2,8.05z"
         id="path4386" /></g></symbol><symbol
     id="antenna_x5F_right"
     viewBox="-5.069 -1.285 7.119 14.385"><g
       id="Layer_1_2_"><path
         style="fill-rule:evenodd;clip-rule:evenodd;fill:#4BB6FA;"
         d="M1.65,2.25l0.4-1.2c0-0.9-0.683-1.617-2.05-2.15    c-0.867-0.333-1.55-0.216-2.05,0.35l-0.5,0.95c-0.9,1.566-1.3,2.983-1.2,4.25c0.133,2,0.5,3.467,1.1,4.4l0.75-0.1L-2.1,7.3    c0.067-1.133,0.55-2.184,1.45-3.15C0.25,3.184,1.017,2.55,1.65,2.25z"
         id="path4390" /><path
         style="fill-rule:evenodd;clip-rule:evenodd;fill:#3F99D1;"
         d="M1.65,2.25L2,1.4c0.133-0.633-0.067-1.2-0.6-1.7    c0.1,1.066-0.583,2.083-2.05,3.05c-0.7,0.467-1.233,1.333-1.6,2.6c-0.333,1.1-0.467,2.267-0.4,3.5l0.7-0.2    c-0.167-0.466-0.216-1-0.15-1.6c0.133-1.034,0.617-2,1.45-2.9C0.25,3.184,1.017,2.55,1.65,2.25z"
         id="path4392" /><path
         style="fill-rule:evenodd;clip-rule:evenodd;fill:#64D7FA;"
         d="M0.6,10.9c0.167-0.8,0.033-1.55-0.4-2.25    c-0.434-0.667-1.034-1.1-1.8-1.3s-1.483-0.1-2.15,0.3C-4.417,8.083-4.833,8.7-5,9.5c-0.167,0.767-0.033,1.5,0.4,2.2    c0.434,0.7,1.033,1.133,1.8,1.3c0.767,0.2,1.483,0.1,2.15-0.3C0.05,12.267,0.467,11.667,0.6,10.9z"
         id="path4394" /><path
         style="fill-rule:evenodd;clip-rule:evenodd;fill:#FFFFFF;"
         d="M-1.45,11.5c0.067-0.333,0.017-0.667-0.15-1    c-0.2-0.3-0.467-0.5-0.8-0.6c-0.367-0.066-0.684-0.017-0.95,0.15c-0.3,0.2-0.483,0.466-0.55,0.8c-0.067,0.333,0,0.667,0.2,1    c0.167,0.3,0.417,0.483,0.75,0.55c0.333,0.1,0.667,0.05,1-0.15C-1.65,12.083-1.483,11.833-1.45,11.5z"
         id="path4396" /></g></symbol><symbol
     id="arm_x5F_left"
     viewBox="-4.252 -3.322 4.78 4.539"><g
       id="Layer_1_6_"><path
         style="fill-rule:evenodd;clip-rule:evenodd;fill:#4D4718;"
         d="M0.149,0.9c0.4-0.3,0.483-0.7,0.25-1.2    C0.2-0.766-0.167-1-0.7-1c-1.034,0-1.767-0.6-2.2-1.8c-0.2-0.6-0.467-0.683-0.8-0.25C-4-2.616-4.184-2-4.25-1.2    C-4.284-0.466-3.7,0.184-2.5,0.75C-1.3,1.317-0.417,1.367,0.149,0.9z"
         id="path4400" /></g></symbol><symbol
     id="arm_x5F_right"
     viewBox="-0.789 -3.104 8.103 3.957"><g
       id="Layer_1_5_"><path
         style="fill-rule:evenodd;clip-rule:evenodd;fill:#595422;"
         d="M6.45-0.1C6.784-0.467,7.034-0.983,7.2-1.65    C7.367-2.35,7.351-2.8,7.15-3C6.984-3.167,6.8-3.133,6.601-2.9C6.367-2.567,6.167-2.333,6-2.2c-0.2,0.133-0.583,0.167-1.15,0.1    c-0.7-0.133-1.267-0.233-1.7-0.3C1.95-2.533,0.8-2.083-0.3-1.05C-0.8-0.617-0.917-0.2-0.649,0.2c0.2,0.367,0.566,0.583,1.1,0.65    c0.3,0.033,0.717-0.2,1.25-0.7c0.567-0.5,1.05-0.767,1.45-0.8C3.484-0.683,4.101-0.517,5-0.15C5.734,0.15,6.217,0.167,6.45-0.1z"
         id="path4404" /></g></symbol><symbol
     id="body"
     viewBox="-15.893 -16.322 31.843 32.561"><g
       id="Layer_1_9_"><path
         style="fill-rule:evenodd;clip-rule:evenodd;fill:#6E672A;"
         d="M-5-15.45c-2.633-0.066-4.934,0.583-6.9,1.95    c-1.633,1.133-2.649,2.533-3.05,4.2l-0.1,2.1c17.833,2.534,26.966,3.534,27.399,3c0.467-0.6,0.2-2.05-0.8-4.35    c-1.167-2.733-2.933-4.833-5.3-6.3C4.216-16.117,2.283-16.5,0.45-16l-2.1,1.1C-2.583-15.233-3.7-15.417-5-15.45z"
         id="path4408" /><path
         style="fill-rule:evenodd;clip-rule:evenodd;fill:#595422;"
         d="M-4.05-10.8l3.25-0.65c2.233-0.6,3.55-1.367,3.95-2.3    c0.267-0.633,0.25-1.417-0.05-2.35c-1.233-0.2-2.4-0.066-3.5,0.4l-1.25,0.8C-2.583-15.233-3.7-15.417-5-15.45    c-2.633-0.066-4.934,0.583-6.9,1.95c-2.133,1.5-3.2,3.367-3.2,5.6l0.301-0.4c0.5-1.434,0.767-2.184,0.8-2.25    c0.566-0.967,1.667-1.784,3.3-2.45c1.367-0.6,2.7-0.667,4-0.2C-5.4-12.767-4.517-11.967-4.05-10.8z"
         id="path4410" /><path
         style="fill-rule:evenodd;clip-rule:evenodd;fill:#4BB6FA;"
         d="M4.95,16.1c3.934,0.533,7.017-0.733,9.25-3.8    c2.733-3.7,2.267-8.816-1.4-15.35c-1.433-2.534-1.833-3.967-1.2-4.3c0.167-0.1,0.4-0.2,0.7-0.3c0.167-0.167,0.067-0.533-0.3-1.1    c-1.3-2.267-3.567-3.55-6.8-3.85c-1.8-0.167-5.367,0.05-10.7,0.65c-4.1,0.467-6.967,1.284-8.601,2.45    c-1.466,1.067-2.033,2.533-1.699,4.4c0.533,2.9,1.816,4.85,3.85,5.85c1.7,0.833,3.767,0.917,6.2,0.25    c1.167-0.367,1.8-0.533,1.9-0.5c0.633,0.167,0.783,1.267,0.45,3.3c-0.533,3.067-0.167,5.684,1.1,7.85    C-0.833,14.183,1.583,15.667,4.95,16.1z"
         id="path4412" /><path
         style="fill-rule:evenodd;clip-rule:evenodd;fill:#87FAFE;"
         d="M4.95,16.1c1.367,0.167,2.45,0.183,3.25,0.05    c1.1-0.167,2.184-0.65,3.25-1.45c-0.233-0.8-1.233-1.233-3-1.3C6.783,13.333,5.566,13.533,4.8,14c-0.767,0.5-1.517,0.767-2.25,0.8    c-0.233,0.034-0.867-0.017-1.9-0.15C1.85,15.383,3.283,15.867,4.95,16.1z"
         id="path4414" /><path
         style="fill-rule:evenodd;clip-rule:evenodd;fill:#3687E3;"
         d="M14.85,7.8c0.5,0.4,0.65,1.267,0.45,2.6    c1.367-3.566,0.533-8.05-2.5-13.45c-1.433-2.534-1.833-3.967-1.2-4.3c0.167-0.1,0.4-0.2,0.7-0.3c0.167-0.167,0.067-0.533-0.3-1.1    c-1.3-2.267-3.567-3.55-6.8-3.85c-1.8-0.167-5.367,0.05-10.7,0.65c-4.1,0.467-6.967,1.284-8.601,2.45    c-1.466,1.067-2.033,2.533-1.699,4.4l0.199,0.9c0.467-1.433,1.551-2.6,3.25-3.5c1.667-0.9,3.1-1.1,4.3-0.6    c1.267,0.533,2.133,1.083,2.6,1.65l0.35,0.7l0.35-1.5c0.4-0.867,1-0.95,1.8-0.25c1.233,1.1,2.367,1.85,3.4,2.25    c0.567,0.367,1.15,0.8,1.75,1.3C1.2-3.917,0.15-3.3-0.95-2.3c-0.7,0.633-1.2,1.183-1.5,1.65L-2.7-0.2l1.35-1.35    c1.1-0.767,2.167-0.733,3.2,0.1c0.767,0.633,1.417,1.767,1.95,3.4C4.333,3.683,5.183,5.1,6.35,6.2    c0.867,0.833,1.967,1.35,3.3,1.55c1.1,0.2,2.2,0.167,3.3-0.1C13.85,7.417,14.483,7.467,14.85,7.8z"
         id="path4416" /><path
         style="fill-rule:evenodd;clip-rule:evenodd;fill:#6E672A;"
         d="M12.9,5.45c1.467-0.567,2.117-1.817,1.95-3.75    c-0.133-1.434-0.533-2.75-1.2-3.95c-0.333-0.6-0.667-1.05-1-1.35l0.2-1.8c-0.033-1.567-0.417-3.267-1.15-5.1    c-0.967-2.4-2.783-4.117-5.45-5.15c-2.9-1.133-5.567-0.833-8,0.9c-1.367,0.967-1.267,2.583,0.3,4.85    c1.233,1.8,2.633,3.233,4.2,4.3c1.966,1.3,3.167,1.867,3.6,1.7C6.183-3,6.133-1.983,6.2-0.85c0.167,2.267,0.85,3.934,2.05,5    C9.85,5.55,11.4,5.983,12.9,5.45z"
         id="path4418" /><path
         style="fill-rule:evenodd;clip-rule:evenodd;fill:#595422;"
         d="M13.55,5.05c1-0.733,1.433-1.85,1.3-3.35    c-0.133-1.434-0.533-2.75-1.2-3.95c-0.333-0.6-0.667-1.05-1-1.35l0.2-1.8c-0.033-1.567-0.417-3.267-1.15-5.1    c-0.967-2.4-2.783-4.117-5.45-5.15c-2.9-1.133-5.567-0.833-8,0.9c-0.667,0.433-0.967,1.117-0.9,2.05h0.2L-2-13.5    c0.4-0.533,0.883-0.85,1.45-0.95c3.4-0.5,6.117,0.167,8.15,2c1.267,1.1,2.034,2.784,2.3,5.05v3.05L9.1-4.3    c-0.566,0-1.2,0.066-1.9,0.2L6.35-3.9C6.216-3.1,6.167-2.2,6.2-1.2c0.633-1,1.567-1.417,2.8-1.25c1.167,0.2,2.333,0.9,3.5,2.1    C14,1.217,14.35,3.017,13.55,5.05z"
         id="path4420" /><path
         style="fill-rule:evenodd;clip-rule:evenodd;fill:#827A32;"
         d="M4.25-6.35c1.367,0.8,2.233,0.85,2.6,0.15    c0.233-0.533,0.2-1.233-0.1-2.1c-0.267-0.767-0.867-1.5-1.8-2.2c-1.133-0.9-2.3-1.233-3.5-1c-1.2,0.2-1.316,0.983-0.35,2.35    C1.966-7.983,3.017-7.05,4.25-6.35z"
         id="path4422" /><path
         style="fill-rule:evenodd;clip-rule:evenodd;fill:#827A32;"
         d="M10.35,4.2c1.167,0.066,1.3-0.684,0.4-2.25    C9.816,0.35,9-0.233,8.3,0.2C7.7,0.6,7.716,1.367,8.35,2.5C8.95,3.567,9.617,4.133,10.35,4.2z"
         id="path4424" /><path
         style="fill-rule:evenodd;clip-rule:evenodd;fill:#565599;"
         d="M-0.15,13.55C1.716,14.983,3.2,15,4.3,13.6    c1.067-1.367,0.35-2.7-2.15-4c-1.733-0.934-2.833-0.717-3.3,0.65C-1.617,11.617-1.284,12.717-0.15,13.55z"
         id="path4426" /><g
         id="g4428"><path
           style="fill-rule:evenodd;clip-rule:evenodd;fill:#3687E3;"
           d="M-8.45,0.65C-6.483,0.383-5.767-0.333-6.3-1.5     c-0.566-1.167-1.9-1.933-4-2.3c-1.7-0.3-2.9-0.3-3.6,0l-0.5,0.55L-13.8-2c0.333,0.667,1.083,1.3,2.25,1.9     C-10.35,0.533-9.317,0.783-8.45,0.65z"
           id="path4430" /><path
           style="fill-rule:evenodd;clip-rule:evenodd;fill:#3687E3;"
           d="M-3-0.5l2.05-1.8l-0.1-0.25     c-0.133-0.233-0.333-0.467-0.6-0.7c-0.4-0.333-0.966-0.467-1.7-0.4C-4.217-3.583-4.867-3.2-5.3-2.5     c-0.467,0.8-0.417,1.433,0.15,1.9C-4.583-0.133-3.867-0.1-3-0.5z"
           id="path4432" /><path
           style="fill-rule:evenodd;clip-rule:evenodd;fill:#3687E3;"
           d="M-1.65,9.8c-1.133-1.767-1.167-1.9-0.1-0.4     c0.8,1.167,1.367-0.066,1.7-3.7c0.3-3.633,0-5.517-0.9-5.65C-1.817-0.083-2.434,0.6-2.8,2.1c-0.3,1.2-0.433,2.75-0.4,4.65     c0.033,1.333,0.317,2.333,0.85,3C-1.75,10.45-1.517,10.467-1.65,9.8z"
           id="path4434" /></g><g
         id="g4436"><path
           style="fill-rule:evenodd;clip-rule:evenodd;fill:#87FAFE;"
           d="M-9.15-0.05C-7.917-0.15-8-0.683-9.4-1.65     c-1.367-0.967-2.483-1.267-3.35-0.9c-0.567,0.233-0.333,0.733,0.7,1.5C-10.983-0.283-10.017,0.05-9.15-0.05z"
           id="path4438" /><path
           style="fill-rule:evenodd;clip-rule:evenodd;fill:#87FAFE;"
           d="M-3.1-0.8c0.2-0.4,0.6-0.717,1.2-0.95     c-0.667-0.633-1.35-0.767-2.05-0.4C-4.583-1.817-4.667-1.433-4.2-1C-3.667-0.5-3.3-0.433-3.1-0.8z"
           id="path4440" /><path
           style="fill-rule:evenodd;clip-rule:evenodd;fill:#87FAFE;"
           d="M-1.1,7.9c0.133-0.867,0.15-2.017,0.05-3.45     c-0.133-1.667-0.417-2.267-0.85-1.8C-2.367,3.117-2.65,4.1-2.75,5.6c-0.1,1.367-0.034,2.267,0.2,2.7     c0.267,0.467,0.517,0.717,0.75,0.75C-1.5,9.083-1.267,8.7-1.1,7.9z"
           id="path4442" /></g></g></symbol><symbol
     id="caterpillar"
     viewBox="-17.6 -22.795 35.801 45.645"><g
       id="leg_x5F_mid_x5F_left_1_"><use
         xlink:href="#leg_x5F_mid_x5F_left"
         width="3.572"
         height="5.529"
         x="-1.75"
         y="-5.524"
         transform="matrix(1 0 0 1 9.0498 -14.4502)"
         style="overflow:visible;"
         id="use4446" /></g><g
       id="leg_x5F_back_x5F_left_1_"><use
         xlink:href="#leg_x5F_back_x5F_left"
         width="3.373"
         height="6.415"
         x="-1.7"
         y="-6.411"
         transform="matrix(1 0 0 1 -1.5498 -13)"
         style="overflow:visible;"
         id="use4449" /></g><g
       id="antenna_x5F_left_1_"><use
         xlink:href="#antenna_x5F_left"
         width="7.216"
         height="9.86"
         x="-1.65"
         y="-0.375"
         transform="matrix(1 0 0 1 11.2002 12.6001)"
         style="overflow:visible;"
         id="use4452" /></g><g
       id="hair_x5F_offside_1_"><use
         xlink:href="#hair_x5F_offside"
         width="28.5"
         height="24"
         x="-14.25"
         y="-12"
         transform="matrix(1 0 0 1 -3.3501 5.0498)"
         style="overflow:visible;"
         id="use4455" /></g><g
       id="body_1_"><use
         xlink:href="#body"
         width="31.843"
         height="32.561"
         x="-15.893"
         y="-16.322"
         transform="matrix(1 0 0 1 2.25 -2.1499)"
         style="overflow:visible;"
         id="use4458" /></g><g
       id="leg_x5F_back_x5F_right_1_"><use
         xlink:href="#leg_x5F_back_x5F_right"
         width="3.724"
         height="4.659"
         x="-1.85"
         y="-4.652"
         transform="matrix(1 0 0 1 -9.2998 -15.5498)"
         style="overflow:visible;"
         id="use4461" /></g><g
       id="leg_x5F_mid_x5F_right_1_"><use
         xlink:href="#leg_x5F_mid_x5F_right"
         width="4.27"
         height="6.241"
         x="-3.363"
         y="-5.795"
         transform="matrix(1 0 0 1 3.3501 -17)"
         style="overflow:visible;"
         id="use4464" /></g><g
       id="arm_x5F_left_1_"><use
         xlink:href="#arm_x5F_left"
         width="4.78"
         height="4.539"
         x="-4.252"
         y="-3.322"
         transform="matrix(1 0 0 1 15.0498 -9.3999)"
         style="overflow:visible;"
         id="use4467" /></g><g
       id="arm_x5F_right_1_"><use
         xlink:href="#arm_x5F_right"
         width="8.103"
         height="3.957"
         x="-0.789"
         y="-3.104"
         transform="matrix(1 0 0 1 6.7002 -8.4502)"
         style="overflow:visible;"
         id="use4470" /></g><g
       id="hair_x5F_front_1_"><use
         xlink:href="#hair_x5F_front"
         width="19.3"
         height="17.341"
         id="caterpillar_1_"
         x="-9.65"
         y="-8.65"
         transform="matrix(1 0 0 1 -6.8501 1.2998)"
         style="overflow:visible;" /></g><g
       id="antenna_x5F_right_1_"><use
         xlink:href="#antenna_x5F_right"
         width="7.119"
         height="14.385"
         x="-5.069"
         y="-1.285"
         transform="matrix(1 0 0 1 3.3501 9.75)"
         style="overflow:visible;"
         id="use4475" /></g><g
       id="labels_1_" /></symbol><symbol
     id="hair_x5F_front"
     viewBox="-9.65 -8.65 19.3 17.341"><g
       id="Layer_1_3_"><path
         style="fill-rule:evenodd;clip-rule:evenodd;fill:#565599;"
         d="M6.2,7.05c0.433,1.267,0.783,1.8,1.05,1.6l0.15-1.6    c0.1-1.1,0.85-2,2.25-2.7c-0.533-0.033-1.033,0-1.5,0.1C7.85,4.517,7.55,4.7,7.25,5l-0.4,0.4L6.8,4.9    c0-0.467,0.067-0.983,0.2-1.55C7.233,2.483,8.017,1.5,9.35,0.4c-0.2,0-0.667,0.167-1.4,0.5c-0.467,0.2-0.867,0.483-1.2,0.85    L6.35,2.3L6.1,1.2C6,0.767,5.983,0.283,6.05-0.25c0.267,0.367,0.617,0.533,1.05,0.5C7.533,0.183,7.767-0.033,7.8-0.4    c0.1-0.767,0.617-1.333,1.55-1.7c-0.567-0.033-1.033-0.033-1.4,0C7.717-2.067,7.483-2,7.25-1.9L7-1.7l0.2-1.55    C7.333-3.717,7.833-4.267,8.7-4.9C8.433-4.967,8.117-4.933,7.75-4.8c0.067-0.534,0-0.95-0.2-1.25c-0.233-0.267-0.6-0.483-1.1-0.65    c-0.2-0.2-0.434-0.367-0.7-0.5c-0.967-0.533-1.933-0.7-2.9-0.5C3.217-7.633,3.633-7.45,4.1-7.15C4.6-6.883,4.8-6.633,4.7-6.4    C4.433-6.6,3.933-6.65,3.2-6.55c-0.534,0.033-0.983,0.2-1.35,0.5L1.8-6.15C1.5-6.25,1.067-6.333,0.5-6.4L0.25-6.5L-0.1-6.45h-0.05    C-0.683-6.45-1.3-6.8-2-7.5c-0.333-0.367-0.617-0.717-0.85-1.05l0.75,1.6L-2.55-7.1c-0.333-0.1-0.667-0.383-1-0.85    c-0.167-0.267-0.3-0.5-0.4-0.7c0,0.8,0.1,1.35,0.3,1.65L-3.9-7.05C-4.267-7.117-4.667-7.333-5.1-7.7    c-0.2-0.2-0.383-0.383-0.55-0.55l0.2,0.45c0.067,0.2,0.167,0.4,0.3,0.6l0.2,0.2L-5.6-6.85c-0.267,0.033-0.717,0-1.35-0.1L-7.8-7.1    c0.367,0.367,0.833,0.633,1.4,0.8l-0.7,0.2c-0.533,0.133-1.117,0.067-1.75-0.2c-0.3-0.133-0.566-0.267-0.8-0.4    c0.1,0.3,0.433,0.6,1,0.9c0.433,0.2,1.033,0.25,1.8,0.15s1.367-0.3,1.8-0.6c0.733,0,1.3-0.133,1.7-0.4    c0.467,0.467,0.95,0.6,1.45,0.4l0.25-0.1L-1.5-6.2c-0.567,0.133-0.917,0.383-1.05,0.75l-0.05,0.5l0.9-0.2    c0.4-0.1,0.9-0.15,1.5-0.15h1.35L0.7-4.45L2.85-5.3C2.55-4.933,2.3-4.533,2.1-4.1L1.95-3.55l1-0.65c0.8-0.5,1.617-0.867,2.45-1.1    c0.633,0.066,1.033,0.083,1.2,0.05c0.167,0.6,0.267,0.933,0.3,1C6.533-3.95,6.25-3.5,6.05-2.9L5.8-2.05l-0.05,1    C5.55-0.717,5.433-0.2,5.4,0.5C5.367,1.267,5.433,1.983,5.6,2.65l0.3,0.8C5.667,4.55,5.767,5.75,6.2,7.05z"
         id="path4480" /></g></symbol><symbol
     id="hair_x5F_offside"
     viewBox="-14.25 -12 28.5 24"><g
       id="_x31__1_"><use
         xlink:href="#_x31_"
         width="6.925"
         height="4.45"
         x="0.025"
         transform="matrix(1 0 0 1 7.2998 7.5498)"
         style="overflow:visible;"
         id="use4484" /></g><g
       id="_x32__1_"><use
         xlink:href="#_x32_"
         width="4.328"
         height="7.1"
         x="-4.35"
         transform="matrix(1 0 0 1 4.1001 1.7998)"
         style="overflow:visible;"
         id="use4487" /></g><g
       id="_x33__1_"><use
         xlink:href="#_x33_"
         width="4.702"
         height="2.52"
         x="-4.7"
         transform="matrix(1 0 0 1 3 -0.2002)"
         style="overflow:visible;"
         id="use4490" /></g><g
       id="_x34__1_"><use
         xlink:href="#_x34_"
         width="12.1"
         height="6.65"
         x="-12.101"
         transform="matrix(1 0 0 1 3.1499 -7.2002)"
         style="overflow:visible;"
         id="use4493" /></g><g
       id="_x35__1_"><use
         xlink:href="#_x35_"
         width="7.003"
         height="5.35"
         x="-7"
         transform="matrix(1 0 0 1 -5.7998 -9.25)"
         style="overflow:visible;"
         id="use4496" /></g><g
       id="_x37__1_"><use
         xlink:href="#_x37_"
         width="5.55"
         height="1.672"
         x="-5.55"
         y="0"
         transform="matrix(1 0 0 1 -8.4502 -11.1001)"
         style="overflow:visible;"
         id="use4499" /></g><g
       id="_x36__1_"><use
         xlink:href="#_x36_"
         width="5.6"
         height="1.503"
         x="-5.6"
         y="-1.5"
         transform="matrix(1 0 0 1 -8.6499 -10.5)"
         style="overflow:visible;"
         id="use4502" /></g></symbol><symbol
     id="leg_x5F_back_x5F_left"
     viewBox="-1.7 -6.411 3.373 6.415"><g
       id="Layer_1_20_"><path
         style="fill-rule:evenodd;clip-rule:evenodd;fill:#4D4718;"
         d="M-0.5,0c0.434,0.033,0.717-0.117,0.85-0.45L0.6-1    c0.133-0.467,0.217-0.933,0.25-1.4c0.033-0.767-0.183-1.45-0.65-2.05L1-4.7c0.533-0.2,0.75-0.4,0.65-0.6    C1.116-6.567,0.3-6.75-0.8-5.851c-0.434,0.333-0.7,0.567-0.8,0.7c-0.066,0.133-0.1,0.317-0.1,0.55c0.033,0.2,0.167,0.35,0.4,0.45    L-0.95-4C-0.15-3.367,0-2.617-0.5-1.75c-0.2,0.367-0.316,0.733-0.35,1.1C-0.851-0.25-0.734-0.034-0.5,0z"
         id="path4506" /></g></symbol><symbol
     id="leg_x5F_back_x5F_right"
     viewBox="-1.85 -4.652 3.724 4.659"><g
       id="Layer_1_8_"><path
         style="fill-rule:evenodd;clip-rule:evenodd;fill:#595422;"
         d="M0.25-0.95c-0.133,0.367-0.117,0.633,0.05,0.8    c0.167,0.167,0.4,0.2,0.7,0.1c0.5-0.2,0.717-0.417,0.65-0.65L1.7-0.8c0.033-0.133,0-0.383-0.1-0.75    c-0.167-0.633-0.567-1.1-1.2-1.4l0.8-0.3c0.533-0.2,0.75-0.383,0.65-0.55C1.083-5,0.1-4.933-1.1-3.6    c-0.4,0.5-0.633,0.817-0.7,0.95c-0.067,0.133-0.067,0.3,0,0.5c0.033,0.133,0.217,0.2,0.55,0.2c0.167,0,0.317-0.017,0.45-0.05h0.75    C0.383-1.899,0.483-1.55,0.25-0.95z"
         id="path4510" /></g></symbol><symbol
     id="leg_x5F_mid_x5F_left"
     viewBox="-1.75 -5.524 3.572 5.529"><g
       id="Layer_1_21_"><path
         style="fill-rule:evenodd;clip-rule:evenodd;fill:#4D4718;"
         d="M-0.6,0c0.467,0.033,0.767-0.1,0.9-0.4l0.25-0.45    c0.2-0.4,0.317-0.8,0.35-1.2c0.033-0.667-0.183-1.267-0.65-1.8l0.85-0.2c0.566-0.2,0.8-0.4,0.7-0.6C1.267-5.684,0.417-5.8-0.75-5    C-1.217-4.733-1.5-4.534-1.6-4.4c-0.1,0.1-0.15,0.267-0.15,0.5c0.033,0.133,0.167,0.267,0.4,0.4c0.133,0.033,0.267,0.066,0.4,0.1    c0.2,0.133,0.367,0.317,0.5,0.55c0.267,0.433,0.233,0.883-0.1,1.35c-0.233,0.333-0.367,0.667-0.4,1C-0.95-0.167-0.833,0-0.6,0z"
         id="path4514" /></g></symbol><symbol
     id="leg_x5F_mid_x5F_right"
     viewBox="-3.363 -5.795 4.27 6.241"><g
       id="Layer_1_7_"><path
         style="fill-rule:evenodd;clip-rule:evenodd;fill:#595422;"
         d="M-2.6-2.45c0.167-0.033,0.333-0.066,0.5-0.1    c0.3,0,0.583,0.067,0.85,0.2c0.533,0.267,0.733,0.75,0.6,1.45c-0.1,0.466-0.067,0.833,0.1,1.1c0.167,0.267,0.4,0.317,0.7,0.15    c0.533-0.267,0.767-0.483,0.7-0.65L0.9-0.95c0.033-0.5-0.05-0.967-0.25-1.4c-0.267-0.7-0.8-1.183-1.6-1.45l0.9-0.4    c0.533-0.3,0.733-0.55,0.6-0.75c-1.1-1.3-2.183-1.1-3.25,0.6c-0.367,0.633-0.583,1.033-0.65,1.2c-0.033,0.167,0,0.35,0.1,0.55    C-3.15-2.466-2.933-2.417-2.6-2.45z"
         id="path4518" /></g></symbol><use
     xlink:href="#caterpillar"
     width="35.801"
     height="45.645"
     x="-17.6"
     y="-22.795"
     transform="matrix(0.54 0 0 -0.54 14.75 24.4502)"
     style="overflow:visible;"
     id="use4520" /></svg>