<?xml version="1.0" encoding="iso-8859-1"?>
<!-- Generator: Adobe Illustrator 15.1.0, SVG Export Plug-In . SVG Version: 6.00 Build 0)  -->
<!DOCTYPE svg PUBLIC "-//W3C//DTD SVG 1.1//EN" "http://www.w3.org/Graphics/SVG/1.1/DTD/svg11.dtd">
<svg version="1.1" id="flash0.ai" xmlns="http://www.w3.org/2000/svg" xmlns:xlink="http://www.w3.org/1999/xlink" x="0px" y="0px"
	 width="52.4px" height="28.95px" viewBox="0 0 52.4 28.95" style="enable-background:new 0 0 52.4 28.95;" xml:space="preserve">
<symbol  id="flash0.ai_x5F_8_x2F_Layer_32_x2F__x3C_Path_x3E__x5F_75" viewBox="0 -17.45 5.1 17.4">
	<g id="Layer_1_4_">
		<path style="fill-rule:evenodd;clip-rule:evenodd;fill:#808080;" d="M0-13.65v13.6C0.025-0.962,0.825-1.813,2.4-2.6v-11.25
			l0.45-1.1c0.5-0.9,1.25-1.733,2.25-2.5c-2.767,1-4.4,2.267-4.9,3.8H0z"/>
	</g>
</symbol>
<symbol  id="flash0.ai_x5F_8_x2F_Layer_32_x2F__x3C_Path_x3E__x5F_76" viewBox="0 -15.55 7.6 15.55">
	<g id="Layer_1_3_">
		<path style="fill-rule:evenodd;clip-rule:evenodd;fill:#FFFFFF;" d="M2.95-12.4v11.35C4.717-0.783,6.233-0.433,7.5,0l0.1-11.85
			c-0.167-0.933-0.883-1.816-2.15-2.65C3.85-15,2.033-15.35,0-15.55C1.6-14.583,2.583-13.533,2.95-12.4z"/>
	</g>
</symbol>
<symbol  id="flash0.ai_x5F_8_x2F_Layer_32_x2F__x3C_Path_x3E__x5F_77" viewBox="0 -15.7 4.6 15.7">
	<g id="Layer_1_2_">
		<path style="fill-rule:evenodd;clip-rule:evenodd;" d="M2-1.225C3.055-0.87,3.921-0.461,4.6,0v-12.05
			c-0.033-0.733-0.467-1.483-1.3-2.25c-0.8-0.467-1.9-0.934-3.3-1.4c1.233,0.867,1.933,1.75,2.1,2.65L2-1.225z"/>
	</g>
</symbol>
<linearGradient id="SVGID_1_" gradientUnits="userSpaceOnUse" x1="0" y1="5.375" x2="17.275" y2="5.375">
	<stop  offset="0" style="stop-color:#A3A3A3"/>
	<stop  offset="1" style="stop-color:#858585"/>
</linearGradient>
<path style="fill-rule:evenodd;clip-rule:evenodd;fill:url(#SVGID_1_);" d="M2.3,1.6l1.45,0.85l10.9,4l2.65,2.7
	c-3.566-1.433-6.6-2.6-9.1-3.5C5.733,4.717,3.033,3.767,0.1,2.8L0,1.6H2.3z"/>
<linearGradient id="SVGID_2_" gradientUnits="userSpaceOnUse" x1="-10.8125" y1="-2.2847" x2="-4.8875" y2="-2.2847" gradientTransform="matrix(-1 0 0 -1 0 0)">
	<stop  offset="0" style="stop-color:#8F8F8F"/>
	<stop  offset="1" style="stop-color:#787878"/>
</linearGradient>
<path style="fill-rule:evenodd;clip-rule:evenodd;fill:url(#SVGID_2_);" d="M11.55,2.8L11.3,4.1c-0.3,0.2-0.6-0.033-0.9-0.7
	c-0.233-0.5-0.8-0.883-1.7-1.15C7.9,2.017,7.133,1.933,6.4,2C5.533,2.133,4.9,2.617,4.5,3.45l-0.45-2.2
	c0.034-0.133,0.517-0.3,1.45-0.5c0.933-0.233,1.6-0.35,2-0.35c0.5,0,1.2,0.283,2.1,0.85L11.55,2.8z"/>
<linearGradient id="SVGID_3_" gradientUnits="userSpaceOnUse" x1="0.0376" y1="3.2563" x2="21.5626" y2="3.2563">
	<stop  offset="0" style="stop-color:#DBDBDB"/>
	<stop  offset="1" style="stop-color:#9E9E9E"/>
</linearGradient>
<path style="fill-rule:evenodd;clip-rule:evenodd;fill:url(#SVGID_3_);" d="M9.9,1.75C9.367,1.283,8.533,1,7.4,0.9
	C6.533,0.833,5.817,0.95,5.25,1.25s-0.583,0.633-0.05,1c0.466,0.333,1.083,0.567,1.85,0.7C7.883,3.05,8.7,3,9.5,2.8
	C10.3,2.567,10.433,2.217,9.9,1.75z M19.3,5.95c-2.1,0.5-3.65,0.667-4.65,0.5c0.2,0-1.5-0.583-5.1-1.75L0,1.6
	C1.967,1,3.583,0.583,4.85,0.35S7.017,0,7.55,0l13.8,4.75C22.05,5.017,21.367,5.417,19.3,5.95z"/>
<linearGradient id="SVGID_4_" gradientUnits="userSpaceOnUse" x1="13.3501" y1="17.5996" x2="42.4502" y2="17.5996">
	<stop  offset="0" style="stop-color:#D4D4D4"/>
	<stop  offset="1" style="stop-color:#8A8A8A"/>
</linearGradient>
<path style="fill-rule:evenodd;clip-rule:evenodd;fill:url(#SVGID_4_);" d="M42.45,20.9l-0.05,0.85H42.3c-0.5,1.5-2.1,2.767-4.8,3.8
	c-2.733,1-5.934,1.5-9.6,1.5c-3.634,0-6.817-0.5-9.55-1.5c-2.7-1.033-4.3-2.3-4.8-3.8h-0.2V8.15c0.045,1.314,1.478,2.414,4.3,3.3
	c2.833,0.933,6.25,1.4,10.25,1.4c3.8,0,7.083-0.417,9.85-1.25c2.767-0.833,4.316-1.867,4.65-3.1v11.85L42.45,20.9z"/>
<use xlink:href="#flash0.ai_x5F_8_x2F_Layer_32_x2F__x3C_Path_x3E__x5F_77"  width="4.6" height="15.7" y="-15.7" transform="matrix(1 0 0 -1 36.3496 10.2002)" style="overflow:visible;opacity:0.1484;enable-background:new    ;"/>
<use xlink:href="#flash0.ai_x5F_8_x2F_Layer_32_x2F__x3C_Path_x3E__x5F_76"  width="7.6" height="15.55" y="-15.55" transform="matrix(1 0 0 -1 30.8496 11.3999)" style="overflow:visible;opacity:0.3008;enable-background:new    ;"/>
<use xlink:href="#flash0.ai_x5F_8_x2F_Layer_32_x2F__x3C_Path_x3E__x5F_75"  width="5.1" height="17.4" y="-17.45" transform="matrix(1 0 0 -1 13.3501 8.1001)" style="overflow:visible;opacity:0.4297;enable-background:new    ;"/>
<linearGradient id="SVGID_5_" gradientUnits="userSpaceOnUse" x1="-43.4434" y1="-10.7031" x2="-7.7584" y2="-10.7031" gradientTransform="matrix(-0.9955 0.0946 -0.0946 -0.9955 7.275790e-004 -3.157407e-004)">
	<stop  offset="0" style="stop-color:#D4D4D4"/>
	<stop  offset="1" style="stop-color:#8A8A8A"/>
</linearGradient>
<path style="fill-rule:evenodd;clip-rule:evenodd;fill:url(#SVGID_5_);" d="M38.2,4.75c2.833,0.9,4.25,2.017,4.25,3.35
	c0,1.333-1.417,2.45-4.25,3.35c-2.834,0.933-6.267,1.4-10.3,1.4c-4,0-7.417-0.467-10.25-1.4c-2.867-0.9-4.3-2.017-4.3-3.35
	c0-1.333,1.433-2.45,4.3-3.35c2.833-0.933,6.25-1.4,10.25-1.4C31.934,3.35,35.366,3.817,38.2,4.75z"/>
<linearGradient id="SVGID_6_" gradientUnits="userSpaceOnUse" x1="-41.2749" y1="-7.8496" x2="-15.5249" y2="-7.8496" gradientTransform="matrix(-1 0 0 -1 0 0)">
	<stop  offset="0" style="stop-color:#949494"/>
	<stop  offset="0.2196" style="stop-color:#B8B8B8"/>
	<stop  offset="1" style="stop-color:#545454"/>
</linearGradient>
<path style="fill-rule:evenodd;clip-rule:evenodd;fill:url(#SVGID_6_);" d="M37.3,5.05c2.566,0.767,3.851,1.7,3.851,2.8
	c0,1.066-1.284,2-3.851,2.8c-2.566,0.767-5.666,1.15-9.3,1.15c-3.6,0-6.7-0.383-9.3-1.15c-2.567-0.8-3.85-1.733-3.85-2.8
	c0-1.1,1.283-2.033,3.85-2.8C21.267,4.283,24.367,3.9,28,3.9C31.667,3.9,34.767,4.283,37.3,5.05z"/>
<linearGradient id="SVGID_7_" gradientUnits="userSpaceOnUse" x1="10.3252" y1="7.1855" x2="51.9752" y2="7.1855">
	<stop  offset="0" style="stop-color:#E5E6AE"/>
	<stop  offset="1" style="stop-color:#ADAD85"/>
</linearGradient>
<path style="fill-rule:evenodd;clip-rule:evenodd;fill:url(#SVGID_7_);" d="M35.9,5c0.267-0.033,0.5,0.05,0.699,0.25
	c0.334,0.267,0.634,0.583,0.9,0.95l0.55,0.05C38.483,6.317,38.8,6.433,39,6.6c0.333,0.233,0.55,0.633,0.65,1.2L40.1,8.1v0.55
	C40.7,8.75,40.967,8.867,40.9,9c-0.167,0.4-0.9,0.867-2.2,1.4c-2.101,0.8-4.967,1.267-8.601,1.4c-4,0.1-7.333-0.15-10-0.75
	c-2.233-0.533-3.733-1.233-4.5-2.1c-0.333-0.333-0.267-0.6,0.2-0.8c0.167-0.066,0.317-0.217,0.45-0.45
	c0.133-0.333,0.217-0.517,0.25-0.55c0.2-0.2,0.417-0.35,0.65-0.45c0.033-0.133,0.067-0.284,0.1-0.45c0.1-0.333,0.217-0.55,0.35-0.65
	l0.7-0.3c0.034-0.1,0.083-0.233,0.15-0.4c0.133-0.267,0.3-0.467,0.5-0.6c0.167-0.066,0.367-0.216,0.6-0.45
	c0.267-0.133,0.717-0.184,1.35-0.15l1.55,0.1l0.3-0.2c0.267-0.1,0.567-0.167,0.9-0.2l1.2-0.05l0.1-0.25
	c0.167-0.167,0.433-0.283,0.8-0.35c0.6-0.133,1.184-0.017,1.75,0.35l0.45-0.25c0.333-0.2,0.633-0.3,0.899-0.3
	c0.434,0,0.917,0.267,1.45,0.8l0.3-0.15c0.233-0.067,0.483-0.05,0.75,0.05c0.434,0.2,0.75,0.433,0.95,0.7l0.65-0.15
	c0.467-0.066,0.816-0.066,1.05,0c0.4,0.133,0.917,0.567,1.55,1.3L35.9,5z"/>
<path style="fill-rule:evenodd;clip-rule:evenodd;fill:#FEFFE3;" d="M18.15,5.45c1.4,0.066,2.017,0.267,1.85,0.6
	c-0.167,0.233-0.317,0.367-0.45,0.4c-0.233,0.066-0.65,0.033-1.25-0.1c-0.6-0.1-0.883-0.283-0.85-0.55
	C17.483,5.533,17.717,5.417,18.15,5.45z"/>
<path style="fill-rule:evenodd;clip-rule:evenodd;fill:#FEFFE3;" d="M23.15,5c1.067-0.2,1.3-0.067,0.7,0.4
	c-0.567,0.533-1.15,0.767-1.75,0.7c-0.5-0.067-0.583-0.25-0.25-0.55C22.15,5.283,22.583,5.1,23.15,5z"/>
<path style="fill-rule:evenodd;clip-rule:evenodd;fill:#FEFFE3;" d="M25.85,6.5c1.367,0.2,1.784,0.533,1.25,1
	c-0.533,0.467-1.167,0.55-1.899,0.25c-0.6-0.2-0.784-0.483-0.55-0.85C24.883,6.567,25.283,6.433,25.85,6.5z"/>
<path style="fill-rule:evenodd;clip-rule:evenodd;fill:#FEFFE3;" d="M19.45,8.45c0.667,0.167,0.7,0.466,0.1,0.9
	c-0.6,0.4-1.066,0.483-1.4,0.25c-0.3-0.2-0.25-0.467,0.15-0.8C18.667,8.5,19.05,8.383,19.45,8.45z"/>
<path style="fill-rule:evenodd;clip-rule:evenodd;fill:#FEFFE3;" d="M25.95,8.75c0.967,0,1.3,0.15,1,0.45
	c-0.334,0.333-0.816,0.483-1.45,0.45C25,9.617,24.85,9.467,25.05,9.2C25.25,8.9,25.55,8.75,25.95,8.75z"/>
<path style="fill-rule:evenodd;clip-rule:evenodd;fill:#FEFFE3;" d="M32.6,8.05c0.601,0.133,1.051,0.333,1.351,0.6
	c0.333,0.267,0.366,0.5,0.1,0.7c-0.267,0.233-0.633,0.267-1.1,0.1C32.483,9.283,32.1,9.033,31.8,8.7
	c-0.233-0.333-0.283-0.55-0.149-0.65C31.816,7.917,32.134,7.917,32.6,8.05z"/>
<path style="fill-rule:evenodd;clip-rule:evenodd;fill:#FEFFE3;" d="M35.7,6.4C36.6,6.533,36.9,6.767,36.6,7.1
	c-0.267,0.333-0.75,0.5-1.449,0.5c-0.601,0-0.767-0.217-0.5-0.65C34.917,6.517,35.267,6.333,35.7,6.4z"/>
<path style="fill-rule:evenodd;clip-rule:evenodd;fill:#FEFFE3;" d="M25.4,3.6c0.867,0,1.167,0.15,0.9,0.45
	c-0.233,0.267-0.633,0.4-1.2,0.4c-0.467,0-0.617-0.133-0.45-0.4C24.817,3.75,25.067,3.6,25.4,3.6z"/>
<path style="fill-rule:evenodd;clip-rule:evenodd;fill:#FEFFE3;" d="M35.25,5.1c1.033,0.233,1.267,0.45,0.7,0.65
	c-0.667,0.167-1.15,0.167-1.45,0c-0.267-0.1-0.316-0.25-0.15-0.45C34.55,5.067,34.85,5,35.25,5.1z"/>
<path style="fill-rule:evenodd;clip-rule:evenodd;fill:#FEFFE3;" d="M35.6,9.7c0.934-0.1,1.351,0.033,1.25,0.4
	c-0.1,0.4-0.449,0.617-1.05,0.65c-0.5,0.033-0.75-0.117-0.75-0.45C35.05,9.967,35.233,9.767,35.6,9.7z"/>
<path style="fill-rule:evenodd;clip-rule:evenodd;fill:#FEFFE3;" d="M16.4,8.8c0.3,0.133,0.417,0.35,0.35,0.65
	c-0.1,0.333-0.283,0.367-0.55,0.1c-0.3-0.233-0.4-0.45-0.3-0.65C15.967,8.7,16.133,8.667,16.4,8.8z"/>
<path style="fill-rule:evenodd;clip-rule:evenodd;fill:#B7B879;" d="M20.35,6.15c0.133,0.6-0.033,1-0.5,1.2
	c-0.3,0.1-0.684,0.066-1.15-0.1l-0.6-0.3l1.35-0.05C19.983,6.867,20.283,6.617,20.35,6.15z"/>
<path style="fill-rule:evenodd;clip-rule:evenodd;fill:#B7B879;" d="M24.6,5.5c0.367,0.333,0.417,0.6,0.15,0.8
	c-0.133,0.133-0.467,0.217-1,0.25L23,6.5l0.8-0.2C24.1,6.2,24.367,5.933,24.6,5.5z"/>
<path style="fill-rule:evenodd;clip-rule:evenodd;fill:#B7B879;" d="M29.85,6.65c0.4,0.267,0.384,0.5-0.05,0.7
	c-0.267,0.1-0.6,0.033-1-0.2L28.3,6.8h0.55C29.217,6.8,29.55,6.75,29.85,6.65z"/>
<path style="fill-rule:evenodd;clip-rule:evenodd;fill:#B7B879;" d="M36.85,7.15c0.233,0.3,0.2,0.583-0.1,0.85
	c-0.167,0.133-0.517,0.2-1.05,0.2l-0.8-0.1l0.85-0.3C36.35,7.533,36.717,7.317,36.85,7.15z"/>
<path style="fill-rule:evenodd;clip-rule:evenodd;fill:#B7B879;" d="M30.7,10.25c0.2,0.467,0.05,0.75-0.45,0.85
	c-0.3,0.033-0.583-0.133-0.85-0.5L29.15,10l0.55,0.15C30.134,10.25,30.467,10.283,30.7,10.25z"/>
<path style="fill-rule:evenodd;clip-rule:evenodd;fill:#B7B879;" d="M27.35,9.45c0.4,0.133,0.5,0.267,0.301,0.4
	c-0.233,0.1-0.551,0.1-0.95,0C27,9.85,27.217,9.717,27.35,9.45z"/>
<path style="fill-rule:evenodd;clip-rule:evenodd;fill:#B7B879;" d="M35.7,9.4L34.6,9.7V8.8C34.967,9.2,35.333,9.4,35.7,9.4z"/>
<path style="fill-rule:evenodd;clip-rule:evenodd;fill:#B7B879;" d="M37.4,7.15c0.333-0.033,0.517-0.017,0.55,0.05
	c0.033,0.033,0.017,0.1-0.05,0.2c-0.067,0.1-0.284,0.283-0.65,0.55c-0.033-0.133-0.066-0.267-0.1-0.4
	C37.116,7.317,37.2,7.183,37.4,7.15z"/>
<path style="fill-rule:evenodd;clip-rule:evenodd;fill:#FEFFE3;" d="M29.5,3.3c0.566,0.034,0.7,0.184,0.4,0.45
	c-0.334,0.267-0.617,0.383-0.851,0.35c-0.133-0.033-0.133-0.184,0-0.45C29.184,3.417,29.333,3.3,29.5,3.3z"/>
<path style="fill-rule:evenodd;clip-rule:evenodd;fill:#EFF0B7;" d="M17.05,7.2C17.817,7.4,18.3,7.667,18.5,8
	c0.133,0.267,0.067,0.5-0.2,0.7c-0.2,0.133-0.583,0.133-1.15,0c-0.6-0.133-1.05-0.317-1.35-0.55c-0.3-0.233-0.267-0.483,0.1-0.75
	C16.233,7.167,16.617,7.1,17.05,7.2z"/>
<path style="fill-rule:evenodd;clip-rule:evenodd;fill:#B7B879;" d="M18.35,7.8c0.333,0.333,0.316,0.633-0.05,0.9
	c-0.2,0.133-0.583,0.133-1.15,0c-0.6-0.133-1.05-0.317-1.35-0.55c-0.167-0.133-0.2-0.316-0.1-0.55c0.4,0.4,0.933,0.633,1.6,0.7
	c0.434,0.034,0.733,0,0.9-0.1C18.4,8.1,18.45,7.967,18.35,7.8z"/>
<path style="fill-rule:evenodd;clip-rule:evenodd;fill:#FEFFE3;" d="M16.3,7.25c0.333-0.033,0.65,0.017,0.95,0.15
	c0.233,0.1,0.333,0.2,0.3,0.3c-0.066,0.2-0.433,0.216-1.1,0.05c-0.233-0.067-0.367-0.167-0.4-0.3C16.017,7.317,16.1,7.25,16.3,7.25z
	"/>
<path style="fill-rule:evenodd;clip-rule:evenodd;fill:#EFF0B7;" d="M22.6,2.8c0.767,0.2,1.25,0.467,1.45,0.8
	c0.133,0.267,0.067,0.483-0.2,0.65c-0.2,0.133-0.583,0.15-1.15,0.05c-0.6-0.133-1.05-0.316-1.35-0.55
	c-0.3-0.233-0.267-0.483,0.1-0.75C21.783,2.733,22.167,2.667,22.6,2.8z"/>
<path style="fill-rule:evenodd;clip-rule:evenodd;fill:#B7B879;" d="M23.9,3.4c0.333,0.333,0.317,0.617-0.05,0.85
	c-0.2,0.133-0.583,0.15-1.15,0.05c-0.6-0.133-1.05-0.316-1.35-0.55c-0.2-0.2-0.233-0.383-0.1-0.55c0.4,0.4,0.917,0.633,1.55,0.7
	C23.667,4,24.033,3.833,23.9,3.4z"/>
<path style="fill-rule:evenodd;clip-rule:evenodd;fill:#FEFFE3;" d="M21.85,2.85c0.333-0.033,0.633,0.017,0.9,0.15
	c0.267,0.1,0.383,0.2,0.35,0.3c-0.067,0.2-0.434,0.217-1.1,0.05c-0.267-0.1-0.4-0.2-0.4-0.3C21.567,2.917,21.65,2.85,21.85,2.85z"/>
<path style="fill-rule:evenodd;clip-rule:evenodd;fill:#EFF0B7;" d="M32.5,9.85c0.967-0.233,1.616-0.217,1.95,0.05
	c0.3,0.2,0.35,0.467,0.149,0.8c-0.133,0.267-0.533,0.5-1.199,0.7c-0.7,0.167-1.284,0.2-1.75,0.1c-0.434-0.067-0.534-0.333-0.301-0.8
	C31.583,10.267,31.967,9.983,32.5,9.85z"/>
<path style="fill-rule:evenodd;clip-rule:evenodd;fill:#B7B879;" d="M34.2,9.75c0.566,0.2,0.7,0.517,0.399,0.95
	c-0.133,0.267-0.533,0.5-1.199,0.7c-0.7,0.167-1.284,0.2-1.75,0.1c-0.267-0.033-0.4-0.2-0.4-0.5c0.6,0.233,1.3,0.2,2.1-0.1
	C34.316,10.467,34.6,10.083,34.2,9.75z"/>
<path style="fill-rule:evenodd;clip-rule:evenodd;fill:#FEFFE3;" d="M31.7,10.3c0.366-0.2,0.733-0.316,1.1-0.35
	c0.3,0,0.467,0.05,0.5,0.15c0.033,0.066-0.066,0.183-0.3,0.35c-0.267,0.133-0.55,0.233-0.85,0.3c-0.301,0.033-0.5,0-0.601-0.1
	C31.45,10.517,31.5,10.4,31.7,10.3z"/>
<path style="fill-rule:evenodd;clip-rule:evenodd;fill:#EFF0B7;" d="M37.85,5C38.583,5.367,39,5.75,39.1,6.15
	c0.067,0.333-0.066,0.567-0.399,0.7c-0.233,0.133-0.617,0.066-1.15-0.2c-0.5-0.233-0.883-0.533-1.149-0.9
	c-0.233-0.333-0.15-0.6,0.25-0.8C37.05,4.75,37.45,4.767,37.85,5z"/>
<path style="fill-rule:evenodd;clip-rule:evenodd;fill:#B7B879;" d="M38.95,5.9c0.267,0.4,0.184,0.717-0.25,0.95
	c-0.233,0.133-0.617,0.066-1.15-0.2c-0.5-0.233-0.883-0.533-1.149-0.9c-0.134-0.2-0.134-0.4,0-0.6c0.3,0.533,0.767,0.9,1.399,1.1
	c0.434,0.133,0.75,0.15,0.95,0.05C38.95,6.233,39.017,6.1,38.95,5.9z"/>
<path style="fill-rule:evenodd;clip-rule:evenodd;fill:#FEFFE3;" d="M37.1,4.9c0.334,0.033,0.634,0.15,0.9,0.35
	c0.2,0.167,0.283,0.3,0.25,0.4c-0.134,0.233-0.5,0.167-1.1-0.2c-0.233-0.133-0.334-0.267-0.301-0.4
	C36.85,4.917,36.934,4.867,37.1,4.9z"/>
<path style="fill-rule:evenodd;clip-rule:evenodd;fill:#EFF0B7;" d="M37.95,8.3c0.967,0.267,1.55,0.617,1.75,1.05
	c0.166,0.367,0.083,0.667-0.25,0.9c-0.233,0.2-0.717,0.217-1.45,0.05c-0.7-0.167-1.233-0.417-1.6-0.75
	c-0.367-0.333-0.334-0.667,0.1-1C36.9,8.217,37.384,8.133,37.95,8.3z"/>
<path style="fill-rule:evenodd;clip-rule:evenodd;fill:#B7B879;" d="M39.5,9.1c0.2,0.2,0.3,0.417,0.3,0.65
	c-0.033,0.233-0.149,0.4-0.35,0.5c-0.233,0.2-0.717,0.217-1.45,0.05c-0.7-0.167-1.233-0.417-1.6-0.75
	c-0.267-0.233-0.317-0.466-0.15-0.7c0.533,0.533,1.184,0.833,1.95,0.9c0.533,0.067,0.916,0.033,1.149-0.1
	C39.55,9.517,39.6,9.333,39.5,9.1z"/>
<path style="fill-rule:evenodd;clip-rule:evenodd;fill:#FEFFE3;" d="M37,8.35c0.4-0.033,0.783,0.033,1.15,0.2
	c0.3,0.133,0.433,0.267,0.399,0.4c-0.033,0.1-0.184,0.167-0.45,0.2C37.833,9.15,37.533,9.1,37.2,9c-0.3-0.1-0.467-0.233-0.5-0.4
	C36.667,8.433,36.767,8.35,37,8.35z"/>
<path style="fill-rule:evenodd;clip-rule:evenodd;fill:#EFF0B7;" d="M25.75,10.15c1.2-0.033,1.967,0.083,2.3,0.35
	c0.267,0.2,0.217,0.433-0.149,0.7c-0.267,0.233-0.851,0.367-1.75,0.4c-0.867,0.066-1.55,0.017-2.05-0.15
	c-0.5-0.133-0.517-0.367-0.05-0.7C24.517,10.383,25.083,10.183,25.75,10.15z"/>
<path style="fill-rule:evenodd;clip-rule:evenodd;fill:#B7B879;" d="M27.75,10.35c0.566,0.233,0.616,0.517,0.15,0.85
	c-0.267,0.233-0.851,0.367-1.75,0.4c-0.867,0.066-1.55,0.017-2.05-0.15c-0.3-0.1-0.4-0.25-0.3-0.45c0.767,0.267,1.6,0.333,2.5,0.2
	C27.667,10.967,28.15,10.683,27.75,10.35z"/>
<path style="fill-rule:evenodd;clip-rule:evenodd;fill:#FEFFE3;" d="M24.65,10.45c0.5-0.133,0.95-0.184,1.35-0.15
	c0.4,0.034,0.6,0.1,0.6,0.2c-0.066,0.233-0.616,0.35-1.649,0.35c-0.367,0.033-0.583-0.017-0.65-0.15
	C24.267,10.6,24.383,10.517,24.65,10.45z"/>
<path style="fill-rule:evenodd;clip-rule:evenodd;fill:#EFF0B7;" d="M19.75,3.65c1,0.1,1.617,0.333,1.85,0.7
	c0.233,0.267,0.2,0.55-0.1,0.85c-0.233,0.2-0.7,0.267-1.4,0.2c-0.7-0.033-1.267-0.167-1.7-0.4c-0.4-0.233-0.417-0.533-0.05-0.9
	C18.717,3.767,19.183,3.617,19.75,3.65z"/>
<path style="fill-rule:evenodd;clip-rule:evenodd;fill:#B7B879;" d="M21.4,4.15c0.467,0.333,0.5,0.684,0.1,1.05
	c-0.233,0.2-0.7,0.267-1.4,0.2c-0.7-0.033-1.267-0.167-1.7-0.4c-0.3-0.133-0.383-0.333-0.25-0.6c0.633,0.4,1.317,0.583,2.05,0.55
	c0.533-0.034,0.917-0.133,1.15-0.3C21.517,4.483,21.533,4.317,21.4,4.15z"/>
<path style="fill-rule:evenodd;clip-rule:evenodd;fill:#FEFFE3;" d="M18.85,3.85c0.4-0.1,0.767-0.1,1.1,0
	c0.333,0.066,0.5,0.167,0.5,0.3c0,0.1-0.133,0.184-0.4,0.25c-0.3,0.033-0.617,0.033-0.95,0c-0.3-0.033-0.467-0.133-0.5-0.3
	C18.567,3.967,18.65,3.883,18.85,3.85z"/>
<path style="fill-rule:evenodd;clip-rule:evenodd;fill:#EFF0B7;" d="M27.5,1.95c0.9,0.233,1.434,0.566,1.6,1
	C29.267,3.283,29.2,3.567,28.9,3.8c-0.233,0.167-0.684,0.184-1.351,0.05c-0.666-0.167-1.166-0.417-1.5-0.75
	c-0.333-0.3-0.3-0.6,0.101-0.9C26.55,1.867,27,1.783,27.5,1.95z"/>
<path style="fill-rule:evenodd;clip-rule:evenodd;fill:#B7B879;" d="M28.95,2.65c0.366,0.434,0.35,0.817-0.05,1.15
	c-0.233,0.167-0.684,0.184-1.351,0.05c-0.666-0.167-1.166-0.417-1.5-0.75c-0.233-0.2-0.267-0.417-0.1-0.65c0.5,0.5,1.1,0.8,1.8,0.9
	c0.5,0.033,0.85-0.017,1.05-0.15S29.05,2.883,28.95,2.65z"/>
<path style="fill-rule:evenodd;clip-rule:evenodd;fill:#FEFFE3;" d="M26.6,2c0.4-0.033,0.75,0.033,1.051,0.2
	c0.3,0.133,0.433,0.25,0.399,0.35c-0.033,0.1-0.166,0.167-0.399,0.2C27.384,2.75,27.1,2.7,26.8,2.6
	c-0.267-0.1-0.416-0.217-0.45-0.35C26.316,2.083,26.4,2,26.6,2z"/>
<path style="fill-rule:evenodd;clip-rule:evenodd;fill:#EFF0B7;" d="M32.2,2.45c0.767,0.2,1.233,0.466,1.399,0.8
	c0.134,0.267,0.067,0.483-0.199,0.65c-0.2,0.133-0.584,0.15-1.15,0.05c-0.566-0.133-1-0.317-1.3-0.55
	C30.616,3.167,30.634,2.917,31,2.65C31.333,2.383,31.733,2.317,32.2,2.45z"/>
<path style="fill-rule:evenodd;clip-rule:evenodd;fill:#B7B879;" d="M33.45,3.05c0.333,0.333,0.316,0.617-0.05,0.85
	c-0.2,0.133-0.584,0.15-1.15,0.05c-0.566-0.133-1-0.317-1.3-0.55c-0.233-0.167-0.283-0.35-0.15-0.55c0.4,0.4,0.934,0.633,1.601,0.7
	C33.3,3.65,33.65,3.483,33.45,3.05z"/>
<path style="fill-rule:evenodd;clip-rule:evenodd;fill:#FEFFE3;" d="M31.4,2.5c0.333-0.033,0.649,0.017,0.949,0.15
	c0.233,0.1,0.351,0.2,0.351,0.3c-0.033,0.066-0.167,0.117-0.4,0.15c-0.233,0-0.467-0.05-0.7-0.15C31.333,2.883,31.2,2.783,31.2,2.65
	C31.167,2.55,31.233,2.5,31.4,2.5z"/>
<path style="fill-rule:evenodd;clip-rule:evenodd;fill:#EFF0B7;" d="M32.05,3.5c1.066,0.333,1.717,0.767,1.95,1.3
	c0.2,0.434,0.116,0.8-0.25,1.1c-0.267,0.233-0.8,0.25-1.6,0.05c-0.767-0.2-1.367-0.5-1.801-0.9c-0.399-0.4-0.366-0.8,0.101-1.2
	S31.45,3.333,32.05,3.5z"/>
<path style="fill-rule:evenodd;clip-rule:evenodd;fill:#B7B879;" d="M33.8,4.45c0.467,0.533,0.45,1.017-0.05,1.45
	c-0.267,0.233-0.8,0.25-1.6,0.05c-0.767-0.2-1.367-0.5-1.801-0.9c-0.267-0.267-0.316-0.566-0.149-0.9
	c0.6,0.667,1.316,1.05,2.149,1.15c0.601,0.067,1.034,0,1.301-0.2C33.85,4.933,33.9,4.717,33.8,4.45z"/>
<path style="fill-rule:evenodd;clip-rule:evenodd;fill:#FEFFE3;" d="M31,3.55c0.467-0.033,0.884,0.05,1.25,0.25
	c0.366,0.2,0.533,0.367,0.5,0.5s-0.2,0.217-0.5,0.25c-0.333,0-0.667-0.066-1-0.2c-0.333-0.1-0.517-0.25-0.55-0.45
	C30.667,3.7,30.767,3.583,31,3.55z"/>
<path style="fill-rule:evenodd;clip-rule:evenodd;fill:#EFF0B7;" d="M27.25,4.3c1.033,0.067,1.7,0.3,2,0.7
	c0.233,0.333,0.217,0.65-0.05,0.95c-0.233,0.233-0.717,0.35-1.45,0.35s-1.333-0.133-1.8-0.4c-0.467-0.233-0.517-0.566-0.15-1
	C26.167,4.467,26.65,4.267,27.25,4.3z"/>
<path style="fill-rule:evenodd;clip-rule:evenodd;fill:#B7B879;" d="M29,4.8c0.5,0.333,0.566,0.717,0.2,1.15
	c-0.233,0.233-0.717,0.35-1.45,0.35s-1.333-0.133-1.8-0.4c-0.333-0.133-0.434-0.35-0.3-0.65c0.7,0.433,1.417,0.6,2.15,0.5
	c0.566-0.067,0.95-0.2,1.15-0.4C29.116,5.183,29.134,5,29,4.8z"/>
<path style="fill-rule:evenodd;clip-rule:evenodd;fill:#FEFFE3;" d="M26.3,4.6c0.434-0.1,0.834-0.117,1.2-0.05
	c0.333,0.067,0.5,0.167,0.5,0.3s-0.134,0.233-0.4,0.3c-0.3,0.067-0.616,0.083-0.949,0.05c-0.334-0.034-0.534-0.133-0.601-0.3
	C25.983,4.767,26.066,4.667,26.3,4.6z"/>
<path style="fill-rule:evenodd;clip-rule:evenodd;fill:#EFF0B7;" d="M32.1,5.6c0.934,0.233,1.483,0.55,1.65,0.95
	c0.167,0.3,0.1,0.583-0.2,0.85c-0.267,0.167-0.717,0.184-1.35,0.05c-0.7-0.167-1.217-0.417-1.55-0.75
	c-0.334-0.267-0.301-0.55,0.1-0.85C31.15,5.55,31.6,5.467,32.1,5.6z"/>
<path style="fill-rule:evenodd;clip-rule:evenodd;fill:#B7B879;" d="M33.55,6.3c0.4,0.333,0.4,0.7,0,1.1
	c-0.267,0.167-0.717,0.184-1.35,0.05c-0.7-0.167-1.217-0.417-1.55-0.75c-0.2-0.167-0.25-0.367-0.15-0.6
	c0.566,0.467,1.184,0.75,1.85,0.85c0.5,0.033,0.867-0.017,1.101-0.15C33.616,6.667,33.65,6.5,33.55,6.3z"/>
<path style="fill-rule:evenodd;clip-rule:evenodd;fill:#FEFFE3;" d="M31.2,5.65c0.399-0.033,0.767,0.033,1.1,0.2
	c0.3,0.133,0.434,0.25,0.4,0.35c-0.033,0.1-0.184,0.15-0.45,0.15C31.983,6.383,31.7,6.333,31.4,6.2
	c-0.267-0.067-0.417-0.184-0.45-0.35C30.917,5.717,31,5.65,31.2,5.65z"/>
<path style="fill-rule:evenodd;clip-rule:evenodd;fill:#EFF0B7;" d="M22.15,6.65c1.1,0.3,1.767,0.717,2,1.25
	c0.2,0.4,0.1,0.733-0.3,1c-0.267,0.233-0.8,0.25-1.6,0.05c-0.8-0.2-1.417-0.483-1.85-0.85c-0.433-0.367-0.4-0.75,0.1-1.15
	C21,6.583,21.55,6.483,22.15,6.65z"/>
<path style="fill-rule:evenodd;clip-rule:evenodd;fill:#B7B879;" d="M23.9,7.55c0.5,0.534,0.483,0.983-0.05,1.35
	c-0.267,0.233-0.8,0.25-1.6,0.05c-0.8-0.2-1.417-0.483-1.85-0.85c-0.267-0.233-0.316-0.5-0.15-0.8c0.6,0.6,1.333,0.95,2.2,1.05
	c0.6,0.066,1.033,0.017,1.3-0.15C23.95,8.033,24,7.817,23.9,7.55z"/>
<path style="fill-rule:evenodd;clip-rule:evenodd;fill:#FEFFE3;" d="M21.1,6.7c0.467-0.034,0.883,0.05,1.25,0.25
	c0.367,0.167,0.533,0.316,0.5,0.45s-0.2,0.2-0.5,0.2c-0.333,0.033-0.684-0.017-1.05-0.15C20.967,7.317,20.783,7.167,20.75,7
	C20.75,6.833,20.867,6.733,21.1,6.7z"/>
<path style="fill-rule:evenodd;clip-rule:evenodd;fill:#EFF0B7;" d="M20.4,9.5c0.833-0.433,1.45-0.583,1.85-0.45
	c0.333,0.133,0.467,0.383,0.4,0.75c-0.033,0.3-0.35,0.617-0.95,0.95c-0.567,0.333-1.083,0.517-1.55,0.55
	c-0.467,0.034-0.65-0.2-0.55-0.7C19.667,10.133,19.933,9.767,20.4,9.5z"/>
<path style="fill-rule:evenodd;clip-rule:evenodd;fill:#B7B879;" d="M21.95,9c0.6,0.067,0.833,0.333,0.7,0.8
	c-0.033,0.3-0.35,0.617-0.95,0.95c-0.567,0.333-1.083,0.517-1.55,0.55c-0.3,0.034-0.483-0.083-0.55-0.35
	c0.733,0,1.367-0.217,1.9-0.65c0.4-0.3,0.633-0.583,0.7-0.85C22.267,9.217,22.183,9.067,21.95,9z"/>
<path style="fill-rule:evenodd;clip-rule:evenodd;fill:#FEFFE3;" d="M19.8,10.15c0.267-0.3,0.567-0.5,0.9-0.6
	c0.267-0.1,0.45-0.1,0.55,0c0.133,0.2-0.167,0.5-0.9,0.9c-0.267,0.133-0.467,0.15-0.6,0.05C19.65,10.4,19.667,10.283,19.8,10.15z"/>
<path style="fill-rule:evenodd;clip-rule:evenodd;fill:#EFF0B7;" d="M29.25,7.8c1.033,0.367,1.634,0.767,1.8,1.2
	c0.134,0.333,0.017,0.617-0.35,0.85c-0.3,0.133-0.816,0.083-1.55-0.15C28.384,9.467,27.8,9.167,27.4,8.8
	C27.033,8.467,27.1,8.167,27.6,7.9C28.134,7.633,28.684,7.6,29.25,7.8z"/>
<path style="fill-rule:evenodd;clip-rule:evenodd;fill:#B7B879;" d="M30.85,8.7c0.434,0.466,0.384,0.85-0.149,1.15
	c-0.3,0.133-0.816,0.083-1.55-0.15C28.384,9.467,27.8,9.167,27.4,8.8c-0.233-0.233-0.25-0.45-0.051-0.65
	c0.5,0.567,1.167,0.917,2,1.05C30.55,9.433,31.05,9.267,30.85,8.7z"/>
<path style="fill-rule:evenodd;clip-rule:evenodd;fill:#FEFFE3;" d="M28.2,7.75c0.467,0.033,0.866,0.133,1.2,0.3
	c0.333,0.167,0.483,0.317,0.449,0.45c-0.133,0.233-0.633,0.2-1.5-0.1c-0.333-0.133-0.5-0.283-0.5-0.45
	C27.85,7.783,27.967,7.717,28.2,7.75z"/>
<path style="fill-rule:evenodd;clip-rule:evenodd;fill:#EFF0B7;" d="M42,7.65c0.167,0.3,0.1,0.567-0.2,0.8
	c-0.233,0.167-0.684,0.183-1.35,0.05c-0.634-0.167-1.134-0.4-1.5-0.7C38.583,7.5,38.6,7.2,39,6.9c0.4-0.3,0.866-0.383,1.4-0.25
	C41.3,6.883,41.833,7.217,42,7.65z"/>
<path style="fill-rule:evenodd;clip-rule:evenodd;fill:#B7B879;" d="M41.85,7.35c0.4,0.433,0.384,0.8-0.05,1.1
	c-0.233,0.167-0.684,0.183-1.35,0.05c-0.634-0.167-1.134-0.4-1.5-0.7c-0.267-0.2-0.316-0.417-0.15-0.65C39.3,7.65,39.9,7.933,40.6,8
	C41.634,8.1,42.05,7.883,41.85,7.35z"/>
<path style="fill-rule:evenodd;clip-rule:evenodd;fill:#FEFFE3;" d="M40.55,6.9c0.3,0.133,0.434,0.25,0.4,0.35s-0.167,0.167-0.4,0.2
	C40.283,7.45,40,7.4,39.7,7.3c-0.3-0.1-0.467-0.216-0.5-0.35c-0.033-0.167,0.066-0.25,0.3-0.25C39.9,6.667,40.25,6.733,40.55,6.9z"
	/>
<path style="fill-rule:evenodd;clip-rule:evenodd;fill:#EFF0B7;" d="M41.1,8.65c0.167,0.3,0.101,0.567-0.199,0.8
	c-0.233,0.167-0.684,0.183-1.351,0.05c-0.633-0.167-1.133-0.4-1.5-0.7c-0.333-0.3-0.3-0.6,0.101-0.9C38.55,7.567,39,7.483,39.5,7.65
	C40.4,7.883,40.934,8.217,41.1,8.65z"/>
<path style="fill-rule:evenodd;clip-rule:evenodd;fill:#B7B879;" d="M40.95,8.35c0.366,0.4,0.35,0.767-0.05,1.1
	c-0.233,0.167-0.684,0.183-1.351,0.05c-0.633-0.167-1.133-0.4-1.5-0.7c-0.2-0.2-0.25-0.417-0.149-0.65
	C38.366,8.617,38.967,8.9,39.7,9c0.5,0.033,0.866-0.017,1.1-0.15C41,8.717,41.05,8.55,40.95,8.35z"/>
<path style="fill-rule:evenodd;clip-rule:evenodd;fill:#FEFFE3;" d="M38.6,7.7c0.4-0.034,0.75,0.033,1.051,0.2
	c0.3,0.133,0.433,0.25,0.399,0.35s-0.166,0.167-0.399,0.2C39.384,8.45,39.1,8.4,38.8,8.3c-0.3-0.1-0.467-0.216-0.5-0.35
	C38.267,7.783,38.366,7.7,38.6,7.7z"/>
</svg>
